[Ivy]
[>Created: Thu Jul 21 11:14:19 CEST 2011]
1308D2FAAF980B3D 3.15 #module
>Proto >Proto Collection #zClass
Ap0 AuthorityGroup Big #zClass
Ap0 B #cInfo
Ap0 #process
Ap0 @TextInP .resExport .resExport #zField
Ap0 @TextInP .type .type #zField
Ap0 @TextInP .processKind .processKind #zField
Ap0 @AnnotationInP-0n ai ai #zField
Ap0 @TextInP .xml .xml #zField
Ap0 @TextInP .responsibility .responsibility #zField
Ap0 @StartSub f0 '' #zField
Ap0 @EndSub f1 '' #zField
Ap0 @GridStep f35 '' #zField
Ap0 @PushWFArc f2 '' #zField
Ap0 @StartRequest f4 '' #zField
Ap0 @EndTask f5 '' #zField
Ap0 @GridStep f7 '' #zField
Ap0 @GridStep f9 '' #zField
Ap0 @CallSub f11 '' #zField
Ap0 @CallSub f13 '' #zField
Ap0 @CallSub f6 '' #zField
Ap0 @PushWFArc f16 '' #zField
Ap0 @PushWFArc f12 '' #zField
Ap0 @GridStep f18 '' #zField
Ap0 @PushWFArc f20 '' #zField
Ap0 @PushWFArc f3 '' #zField
Ap0 @CallSub f21 '' #zField
Ap0 @PushWFArc f22 '' #zField
Ap0 @PushWFArc f14 '' #zField
Ap0 @CallSub f17 '' #zField
Ap0 @GridStep f23 '' #zField
Ap0 @PushWFArc f8 '' #zField
Ap0 @GridStep f26 '' #zField
Ap0 @CallSub f28 '' #zField
Ap0 @GridStep f27 '' #zField
Ap0 @CallSub f29 '' #zField
Ap0 @PushWFArc f30 '' #zField
Ap0 @PushWFArc f10 '' #zField
Ap0 @CallSub f24 '' #zField
Ap0 @CallSub f25 '' #zField
Ap0 @GridStep f34 '' #zField
Ap0 @GridStep f36 '' #zField
Ap0 @CallSub f37 '' #zField
Ap0 @PushWFArc f38 '' #zField
Ap0 @PushWFArc f39 '' #zField
Ap0 @PushWFArc f40 '' #zField
Ap0 @PushWFArc f41 '' #zField
Ap0 @PushWFArc f42 '' #zField
Ap0 @StartSub f44 '' #zField
Ap0 @EndSub f45 '' #zField
Ap0 @GridStep f47 '' #zField
Ap0 @PushWFArc f48 '' #zField
Ap0 @PushWFArc f46 '' #zField
Ap0 @StartSub f53 '' #zField
Ap0 @GridStep f56 '' #zField
Ap0 @EndSub f67 '' #zField
Ap0 @PushWFArc f81 '' #zField
Ap0 @PushWFArc f86 '' #zField
Ap0 @PushWFArc f62 '' #zField
Ap0 @PushWFArc f31 '' #zField
Ap0 @PushWFArc f15 '' #zField
Ap0 @CallSub f33 '' #zField
Ap0 @PushWFArc f32 '' #zField
Ap0 @PushWFArc f49 '' #zField
Ap0 @PushWFArc f52 '' #zField
Ap0 @GridStep f149 '' #zField
Ap0 @PushWFArc f43 '' #zField
Ap0 @CallSub f54 '' #zField
Ap0 @GridStep f55 '' #zField
Ap0 @CallSub f57 '' #zField
Ap0 @CallSub f58 '' #zField
Ap0 @GridStep f59 '' #zField
Ap0 @PushWFArc f60 '' #zField
Ap0 @PushWFArc f61 '' #zField
Ap0 @PushWFArc f63 '' #zField
Ap0 @PushWFArc f64 '' #zField
Ap0 @PushWFArc f65 '' #zField
Ap0 @CallSub f51 '' #zField
Ap0 @CallSub f66 '' #zField
Ap0 @GridStep f68 '' #zField
Ap0 @GridStep f69 '' #zField
Ap0 @CallSub f70 '' #zField
Ap0 @PushWFArc f71 '' #zField
Ap0 @PushWFArc f72 '' #zField
Ap0 @PushWFArc f73 '' #zField
Ap0 @PushWFArc f74 '' #zField
Ap0 @CallSub f76 '' #zField
Ap0 @CallSub f77 '' #zField
Ap0 @CallSub f78 '' #zField
Ap0 @GridStep f79 '' #zField
Ap0 @GridStep f80 '' #zField
Ap0 @PushWFArc f82 '' #zField
Ap0 @PushWFArc f83 '' #zField
Ap0 @PushWFArc f84 '' #zField
Ap0 @PushWFArc f85 '' #zField
Ap0 @PushWFArc f87 '' #zField
Ap0 @CallSub f88 '' #zField
Ap0 @GridStep f89 '' #zField
Ap0 @CallSub f90 '' #zField
Ap0 @CallSub f91 '' #zField
Ap0 @GridStep f92 '' #zField
Ap0 @PushWFArc f93 '' #zField
Ap0 @PushWFArc f94 '' #zField
Ap0 @PushWFArc f95 '' #zField
Ap0 @PushWFArc f96 '' #zField
Ap0 @PushWFArc f98 '' #zField
Ap0 @PushWFArc f99 '' #zField
Ap0 @PushWFArc f75 '' #zField
Ap0 @GridStep f97 '' #zField
Ap0 @StartRequest f100 '' #zField
Ap0 @PushWFArc f101 '' #zField
Ap0 @EndTask f102 '' #zField
Ap0 @PushWFArc f103 '' #zField
>Proto Ap0 Ap0 AuthorityGroup #zField
Ap0 f0 inParamDecl '<ch.soreco.common.bo.AuthorityGroup Group> param;' #txt
Ap0 f0 inParamTable 'out.authorityGroup=param.Group;
' #txt
Ap0 f0 outParamDecl '<java.lang.Boolean success,java.lang.String error> result;
' #txt
Ap0 f0 outParamTable 'result.success=in.success;
result.error=in.error;
' #txt
Ap0 f0 actionDecl 'ch.soreco.common.functional.AuthorityGroup out;
' #txt
Ap0 f0 callSignature set(ch.soreco.common.bo.AuthorityGroup) #txt
Ap0 f0 type ch.soreco.common.functional.AuthorityGroup #txt
Ap0 f0 @C|.xml '<?xml version="1.0" encoding="UTF-8" standalone="yes"?>
<elementInfo>
    <language>
        <name>set(AuthorityGroup)</name>
    </language>
</elementInfo>
' #txt
Ap0 f0 67 35 26 26 14 0 #rect
Ap0 f0 @|StartSubIcon #fIcon
Ap0 f1 type ch.soreco.common.functional.AuthorityGroup #txt
Ap0 f1 67 211 26 26 14 0 #rect
Ap0 f1 @|EndSubIcon #fIcon
Ap0 f35 actionDecl 'ch.soreco.common.functional.AuthorityGroup out;
' #txt
Ap0 f35 actionTable 'out=in;
' #txt
Ap0 f35 actionCode 'import ch.soreco.common.bo.AuthorityGroup;
import ch.soreco.webbies.common.db.EscapeHtml;

EscapeHtml.escapeHtml(in.authorityGroup);

try {
	out.authorityGroup = ivy.persistence.Adressmutation.merge(in.authorityGroup) as AuthorityGroup;
	out.success = true;
}
catch (Exception e) {
	out.success = false;
	out.error = e.getMessage();
	ivy.log.error(e);
}' #txt
Ap0 f35 type ch.soreco.common.functional.AuthorityGroup #txt
Ap0 f35 @C|.xml '<?xml version="1.0" encoding="UTF-8" standalone="yes"?>
<elementInfo>
    <language>
        <name>merge AuthorityGroup</name>
        <nameStyle>20
</nameStyle>
    </language>
</elementInfo>
' #txt
Ap0 f35 62 148 36 24 20 -2 #rect
Ap0 f35 @|StepIcon #fIcon
Ap0 f2 expr out #txt
Ap0 f2 80 172 80 211 #arcP
Ap0 f4 outLink setTestData.ivp #txt
Ap0 f4 type ch.soreco.common.functional.AuthorityGroup #txt
Ap0 f4 inParamDecl '<> param;' #txt
Ap0 f4 actionDecl 'ch.soreco.common.functional.AuthorityGroup out;
' #txt
Ap0 f4 guid 1308D3423BAC878F #txt
Ap0 f4 requestEnabled true #txt
Ap0 f4 triggerEnabled false #txt
Ap0 f4 callSignature setTestData() #txt
Ap0 f4 persist false #txt
Ap0 f4 taskData '#
#Wed Jul 20 11:36:42 CEST 2011
TaskTriggered.ROL=Everybody
TaskTriggered.EXTYPE=0
TaskTriggered.EXPRI=2
TaskTriggered.TYPE=0
TaskTriggered.PRI=2
TaskTriggered.EXROL=Everybody
' #txt
Ap0 f4 caseData '#
#Wed Jul 20 11:36:42 CEST 2011
businessCreator.user=
businessMilestone.timestamp=
businessObject.code=
businessObject.docDb.code=
businessObject.folder.id=
businessObject.name=
businessPriority=
businessStart.timestamp=
case.description=
case.name=
correspondent.id=
mainContact.docDb.code=
mainContact.folder.id=
mainContact.id=
mainContact.name=
mainContact.type=
process.code=
process.name=
processCategory.code=
processCategory.name=
subType.code=
subType.name=
type.code=
type.name=
' #txt
Ap0 f4 showInStartList 1 #txt
Ap0 f4 roleExceptionId '>> Ignore Exception' #txt
Ap0 f4 taskAndCaseSetupAction 'import ch.ivyteam.ivy.workflow.TaskUpdateDefinition;
ch.ivyteam.ivy.workflow.TaskUpdateDefinition taskUpdDef = new ch.ivyteam.ivy.workflow.TaskUpdateDefinition();taskUpdDef.setPriority(ch.ivyteam.ivy.workflow.WorkflowPriority.valueOf(2));
taskUpdDef.setExpiryActivator("Everybody");
taskUpdDef.setExpiryPriority(ch.ivyteam.ivy.workflow.WorkflowPriority.valueOf(2));
engine.updateCurrentTask(taskUpdDef);
' #txt
Ap0 f4 @C|.xml '<?xml version="1.0" encoding="UTF-8" standalone="yes"?>
<elementInfo>
    <language>
        <name>setTestData.ivp</name>
        <nameStyle>15,5,7
</nameStyle>
    </language>
</elementInfo>
' #txt
Ap0 f4 @C|.responsibility Administrator #txt
Ap0 f4 843 27 26 26 14 0 #rect
Ap0 f4 @|StartRequestIcon #fIcon
Ap0 f5 type ch.soreco.common.functional.AuthorityGroup #txt
Ap0 f5 843 347 26 26 14 0 #rect
Ap0 f5 @|EndIcon #fIcon
Ap0 f7 actionDecl 'ch.soreco.common.functional.AuthorityGroup out;
' #txt
Ap0 f7 actionTable 'out=in;
out.authorityGroup.Description="Set write authority to all SD OrderTypes";
out.authorityGroup.GroupName="SD write";
out.authorityGroup.id=4;
' #txt
Ap0 f7 actionCode 'import ch.soreco.orderbook.enums.GroupRole;
import ch.ivyteam.ivy.security.IUser;

out.authorityGroup.GroupRole = GroupRole.Write.name();

List<String> userNames = new List<String>();


//Test User
userNames.add("HORO");
userNames.add("AIM");
userNames.add("AI");
userNames.add("BST");
userNames.add("PB");
userNames.add("MASD");


// prod users bzp 28.06.2011
userNames.add("ZALTO");
userNames.add("ZARPA");
userNames.add("ZKEMA"); //Markus Kerz
userNames.add("ZROHO"); //Horst Rossdeutsch
userNames.add("ZCHJO"); 
userNames.add("ZMCLI");

userNames.add("ZCAMZ");
userNames.add("ZDIAP");
userNames.add("ZEGDA");
userNames.add("ZGRAN");
userNames.add("ZJUAD");
userNames.add("ZMRWE");
userNames.add("ZROAM");
userNames.add("ZSCLE");
userNames.add("ZTESA");
userNames.add("ZWAKA");
userNames.add("ZWEPH");


List<IUser> users = new List<IUser>();
for (String userName : userNames){
	IUser user = ivy.request.getSecurityContext().findUser(userName);
	if (user != null){
		users.add(user);
	}
}
out.authorityGroup.UserList = users;' #txt
Ap0 f7 type ch.soreco.common.functional.AuthorityGroup #txt
Ap0 f7 @C|.xml '<?xml version="1.0" encoding="UTF-8" standalone="yes"?>
<elementInfo>
    <language>
        <name>setSDwrite</name>
        <nameStyle>10
</nameStyle>
    </language>
</elementInfo>
' #txt
Ap0 f7 1006 68 36 24 20 -2 #rect
Ap0 f7 @|StepIcon #fIcon
Ap0 f9 actionDecl 'ch.soreco.common.functional.AuthorityGroup out;
' #txt
Ap0 f9 actionTable 'out=in;
out.authorityGroup.Description="Set read authority to all OrderTypes";
out.authorityGroup.GroupName="Main read";
out.authorityGroup.id=1;
' #txt
Ap0 f9 actionCode 'import ch.soreco.orderbook.enums.GroupRole;
import ch.ivyteam.ivy.security.IUser;

out.authorityGroup.GroupRole = GroupRole.Read.name();

out.authorityGroup.UserList = ivy.request.getSecurityContext().getUsers();' #txt
Ap0 f9 type ch.soreco.common.functional.AuthorityGroup #txt
Ap0 f9 @C|.xml '<?xml version="1.0" encoding="UTF-8" standalone="yes"?>
<elementInfo>
    <language>
        <name>setMAINread</name>
        <nameStyle>11
</nameStyle>
    </language>
</elementInfo>
' #txt
Ap0 f9 838 68 36 24 20 -2 #rect
Ap0 f9 @|StepIcon #fIcon
Ap0 f11 type ch.soreco.common.functional.AuthorityGroup #txt
Ap0 f11 processCall 'Functional Processes/common/AuthorityGroup:set(ch.soreco.common.bo.AuthorityGroup)' #txt
Ap0 f11 doCall true #txt
Ap0 f11 requestActionDecl '<ch.soreco.common.bo.AuthorityGroup Group> param;
' #txt
Ap0 f11 requestMappingAction 'param.Group=in.authorityGroup;
' #txt
Ap0 f11 responseActionDecl 'ch.soreco.common.functional.AuthorityGroup out;
' #txt
Ap0 f11 responseMappingAction 'out=in;
' #txt
Ap0 f11 @C|.xml '<?xml version="1.0" encoding="UTF-8" standalone="yes"?>
<elementInfo>
    <language>
        <name>setData</name>
        <nameStyle>7
</nameStyle>
    </language>
</elementInfo>
' #txt
Ap0 f11 1006 132 36 24 20 -2 #rect
Ap0 f11 @|CallSubIcon #fIcon
Ap0 f13 type ch.soreco.common.functional.AuthorityGroup #txt
Ap0 f13 processCall 'Functional Processes/common/AuthorityGroup:set(ch.soreco.common.bo.AuthorityGroup)' #txt
Ap0 f13 doCall true #txt
Ap0 f13 requestActionDecl '<ch.soreco.common.bo.AuthorityGroup Group> param;
' #txt
Ap0 f13 requestMappingAction 'param.Group=in.authorityGroup;
' #txt
Ap0 f13 responseActionDecl 'ch.soreco.common.functional.AuthorityGroup out;
' #txt
Ap0 f13 responseMappingAction 'out=in;
' #txt
Ap0 f13 @C|.xml '<?xml version="1.0" encoding="UTF-8" standalone="yes"?>
<elementInfo>
    <language>
        <name>setData</name>
        <nameStyle>7
</nameStyle>
    </language>
</elementInfo>
' #txt
Ap0 f13 838 132 36 24 20 -2 #rect
Ap0 f13 @|CallSubIcon #fIcon
Ap0 f6 type ch.soreco.common.functional.AuthorityGroup #txt
Ap0 f6 processCall 'Functional Processes/orderbook/OrderBook:get(Boolean,ch.soreco.orderbook.bo.OrderBook)' #txt
Ap0 f6 doCall true #txt
Ap0 f6 requestActionDecl '<java.lang.Boolean withoutTypes,ch.soreco.orderbook.bo.OrderBook filter> param;
' #txt
Ap0 f6 requestMappingAction 'param.filter.shortname="SD";
' #txt
Ap0 f6 responseActionDecl 'ch.soreco.common.functional.AuthorityGroup out;
' #txt
Ap0 f6 responseMappingAction 'out=in;
out.authorityGroup.OrderBook=result.OrderBook;
out.error=result.error;
out.success=result.success;
' #txt
Ap0 f6 @C|.xml '<?xml version="1.0" encoding="UTF-8" standalone="yes"?>
<elementInfo>
    <language>
        <name>getOrderBook</name>
        <nameStyle>12
</nameStyle>
    </language>
</elementInfo>
' #txt
Ap0 f6 1006 100 36 24 20 -2 #rect
Ap0 f6 @|CallSubIcon #fIcon
Ap0 f16 expr out #txt
Ap0 f16 1024 92 1024 100 #arcP
Ap0 f12 expr out #txt
Ap0 f12 1024 124 1024 132 #arcP
Ap0 f18 actionDecl 'ch.soreco.common.functional.AuthorityGroup out;
' #txt
Ap0 f18 actionTable 'out=in;
' #txt
Ap0 f18 actionCode 'import ch.ivyteam.ivy.security.IUser;

StringBuffer users = new StringBuffer();
for (IUser user:in.authorityGroup.UserList){
	users.append(user.getName());
	users.append(", ");
}
users.delete(users.lastIndexOf(","),users.length());
out.authorityGroup.Users = users.toString();' #txt
Ap0 f18 type ch.soreco.common.functional.AuthorityGroup #txt
Ap0 f18 @C|.xml '<?xml version="1.0" encoding="UTF-8" standalone="yes"?>
<elementInfo>
    <language>
        <name>get Users</name>
        <nameStyle>9
</nameStyle>
    </language>
</elementInfo>
' #txt
Ap0 f18 62 92 36 24 20 -2 #rect
Ap0 f18 @|StepIcon #fIcon
Ap0 f20 expr out #txt
Ap0 f20 80 61 80 92 #arcP
Ap0 f3 expr out #txt
Ap0 f3 80 116 80 148 #arcP
Ap0 f21 type ch.soreco.common.functional.AuthorityGroup #txt
Ap0 f21 processCall 'Functional Processes/orderbook/OrderBook:get(Boolean,ch.soreco.orderbook.bo.OrderBook)' #txt
Ap0 f21 doCall true #txt
Ap0 f21 requestActionDecl '<java.lang.Boolean withoutTypes,ch.soreco.orderbook.bo.OrderBook filter> param;
' #txt
Ap0 f21 requestMappingAction 'param.filter.shortname="ALL";
' #txt
Ap0 f21 responseActionDecl 'ch.soreco.common.functional.AuthorityGroup out;
' #txt
Ap0 f21 responseMappingAction 'out=in;
out.authorityGroup.OrderBook=result.OrderBook;
out.error=result.error;
out.success=result.success;
' #txt
Ap0 f21 @C|.xml '<?xml version="1.0" encoding="UTF-8" standalone="yes"?>
<elementInfo>
    <language>
        <name>getOrderBook</name>
        <nameStyle>12
</nameStyle>
    </language>
</elementInfo>
' #txt
Ap0 f21 838 100 36 24 20 -2 #rect
Ap0 f21 @|CallSubIcon #fIcon
Ap0 f22 expr out #txt
Ap0 f22 856 92 856 100 #arcP
Ap0 f14 expr out #txt
Ap0 f14 856 124 856 132 #arcP
Ap0 f17 type ch.soreco.common.functional.AuthorityGroup #txt
Ap0 f17 processCall 'Functional Processes/common/AuthorityGroup:set(ch.soreco.common.bo.AuthorityGroup)' #txt
Ap0 f17 doCall true #txt
Ap0 f17 requestActionDecl '<ch.soreco.common.bo.AuthorityGroup Group> param;
' #txt
Ap0 f17 requestMappingAction 'param.Group=in.authorityGroup;
' #txt
Ap0 f17 responseActionDecl 'ch.soreco.common.functional.AuthorityGroup out;
' #txt
Ap0 f17 responseMappingAction 'out=in;
' #txt
Ap0 f17 @C|.xml '<?xml version="1.0" encoding="UTF-8" standalone="yes"?>
<elementInfo>
    <language>
        <name>setData</name>
        <nameStyle>7
</nameStyle>
    </language>
</elementInfo>
' #txt
Ap0 f17 1006 220 36 24 20 -2 #rect
Ap0 f17 @|CallSubIcon #fIcon
Ap0 f23 actionDecl 'ch.soreco.common.functional.AuthorityGroup out;
' #txt
Ap0 f23 actionTable 'out=in;
out.authorityGroup.Description="Set dispatching authority to all SD OrderTypes";
out.authorityGroup.GroupName="SD disp";
out.authorityGroup.id=5;
' #txt
Ap0 f23 actionCode 'import ch.soreco.orderbook.enums.GroupRole;
import ch.ivyteam.ivy.security.IUser;

out.authorityGroup.GroupRole = GroupRole.TeamDisp.name();

List<String> userNames = new List<String>();

// test users
userNames.add("AIM");
userNames.add("AI");
userNames.add("MASD");
userNames.add("TDSD");


// prod users bzp 28.06.2011
userNames.add("ZALTO");
userNames.add("ZARPA");
userNames.add("ZKEMA"); //Markus Kerz
userNames.add("ZROHO"); //Horst Rossdeutsch
userNames.add("ZCHJO"); 
userNames.add("ZMCLI");

userNames.add("ZCAMZ");
userNames.add("ZDIAP");
userNames.add("ZEGDA");
userNames.add("ZGRAN");
userNames.add("ZJUAD");
userNames.add("ZMRWE");
userNames.add("ZROAM");
userNames.add("ZSCLE");
userNames.add("ZTESA");
userNames.add("ZWAKA");
userNames.add("ZWEPH");

List<IUser> users = new List<IUser>();
for (String userName : userNames){
	IUser user = ivy.request.getSecurityContext().findUser(userName);
	if (user != null){
		users.add(user);
	}
}
out.authorityGroup.UserList = users;' #txt
Ap0 f23 type ch.soreco.common.functional.AuthorityGroup #txt
Ap0 f23 @C|.xml '<?xml version="1.0" encoding="UTF-8" standalone="yes"?>
<elementInfo>
    <language>
        <name>setSDdisp</name>
        <nameStyle>9
</nameStyle>
    </language>
</elementInfo>
' #txt
Ap0 f23 1006 188 36 24 20 -2 #rect
Ap0 f23 @|StepIcon #fIcon
Ap0 f8 expr out #txt
Ap0 f8 1024 156 1024 188 #arcP
Ap0 f26 actionDecl 'ch.soreco.common.functional.AuthorityGroup out;
' #txt
Ap0 f26 actionTable 'out=in;
out.authorityGroup.Description="Set dispatching authority to all OrderTypes";
out.authorityGroup.GroupName="Main dispatching";
out.authorityGroup.id=3;
' #txt
Ap0 f26 actionCode 'import ch.soreco.orderbook.enums.GroupRole;
import ch.ivyteam.ivy.security.IUser;

out.authorityGroup.GroupRole = GroupRole.Dispatch.name();

List<String> userNames = new List<String>();
userNames.add("PB");
userNames.add("MAMS");

// prod users bzp 28.06.2011
userNames.add("ZALTO");
userNames.add("ZARPA");
userNames.add("ZKEMA"); //Markus Kerz
userNames.add("ZROHO"); //Horst Rossdeutsch
userNames.add("ZCHJO"); 
userNames.add("ZMCLI");

List<IUser> users = new List<IUser>();
for (String userName : userNames){
	IUser user = ivy.request.getSecurityContext().findUser(userName);
	if (user != null){
		users.add(user);
	}
}
out.authorityGroup.UserList = users;' #txt
Ap0 f26 type ch.soreco.common.functional.AuthorityGroup #txt
Ap0 f26 @C|.xml '<?xml version="1.0" encoding="UTF-8" standalone="yes"?>
<elementInfo>
    <language>
        <name>setMAINdisp</name>
        <nameStyle>11
</nameStyle>
    </language>
</elementInfo>
' #txt
Ap0 f26 838 252 36 24 20 -2 #rect
Ap0 f26 @|StepIcon #fIcon
Ap0 f28 type ch.soreco.common.functional.AuthorityGroup #txt
Ap0 f28 processCall 'Functional Processes/common/AuthorityGroup:set(ch.soreco.common.bo.AuthorityGroup)' #txt
Ap0 f28 doCall true #txt
Ap0 f28 requestActionDecl '<ch.soreco.common.bo.AuthorityGroup Group> param;
' #txt
Ap0 f28 requestMappingAction 'param.Group=in.authorityGroup;
' #txt
Ap0 f28 responseActionDecl 'ch.soreco.common.functional.AuthorityGroup out;
' #txt
Ap0 f28 responseMappingAction 'out=in;
' #txt
Ap0 f28 @C|.xml '<?xml version="1.0" encoding="UTF-8" standalone="yes"?>
<elementInfo>
    <language>
        <name>setData</name>
        <nameStyle>7
</nameStyle>
    </language>
</elementInfo>
' #txt
Ap0 f28 838 316 36 24 20 -2 #rect
Ap0 f28 @|CallSubIcon #fIcon
Ap0 f27 actionDecl 'ch.soreco.common.functional.AuthorityGroup out;
' #txt
Ap0 f27 actionTable 'out=in;
out.authorityGroup.Description="Set write authority to all OrderTypes";
out.authorityGroup.GroupName="Main write";
out.authorityGroup.id=2;
' #txt
Ap0 f27 actionCode 'import ch.soreco.orderbook.enums.GroupRole;
import ch.ivyteam.ivy.security.IUser;

out.authorityGroup.GroupRole = GroupRole.Write.name();

List<String> userNames = new List<String>();
//This Role is just for superusers
//userNames.add("AIM");
//userNames.add("AI");
userNames.add("BST");
userNames.add("PB");

List<IUser> users = new List<IUser>();
for (String userName : userNames){
	IUser user = ivy.request.getSecurityContext().findUser(userName);
	if (user != null){
		users.add(user);
	}
}
out.authorityGroup.UserList = users;' #txt
Ap0 f27 type ch.soreco.common.functional.AuthorityGroup #txt
Ap0 f27 @C|.xml '<?xml version="1.0" encoding="UTF-8" standalone="yes"?>
<elementInfo>
    <language>
        <name>setMAINwrite</name>
        <nameStyle>12
</nameStyle>
    </language>
</elementInfo>
' #txt
Ap0 f27 838 180 36 24 20 -2 #rect
Ap0 f27 @|StepIcon #fIcon
Ap0 f29 type ch.soreco.common.functional.AuthorityGroup #txt
Ap0 f29 processCall 'Functional Processes/common/AuthorityGroup:set(ch.soreco.common.bo.AuthorityGroup)' #txt
Ap0 f29 doCall true #txt
Ap0 f29 requestActionDecl '<ch.soreco.common.bo.AuthorityGroup Group> param;
' #txt
Ap0 f29 requestMappingAction 'param.Group=in.authorityGroup;
' #txt
Ap0 f29 responseActionDecl 'ch.soreco.common.functional.AuthorityGroup out;
' #txt
Ap0 f29 responseMappingAction 'out=in;
' #txt
Ap0 f29 @C|.xml '<?xml version="1.0" encoding="UTF-8" standalone="yes"?>
<elementInfo>
    <language>
        <name>setData</name>
        <nameStyle>7
</nameStyle>
    </language>
</elementInfo>
' #txt
Ap0 f29 838 212 36 24 20 -2 #rect
Ap0 f29 @|CallSubIcon #fIcon
Ap0 f30 expr out #txt
Ap0 f30 856 204 856 212 #arcP
Ap0 f10 expr out #txt
Ap0 f10 1024 212 1024 220 #arcP
Ap0 f24 type ch.soreco.common.functional.AuthorityGroup #txt
Ap0 f24 processCall 'Functional Processes/orderbook/OrderBook:get(Boolean,ch.soreco.orderbook.bo.OrderBook)' #txt
Ap0 f24 doCall true #txt
Ap0 f24 requestActionDecl '<java.lang.Boolean withoutTypes,ch.soreco.orderbook.bo.OrderBook filter> param;
' #txt
Ap0 f24 requestMappingAction 'param.filter.shortname="TRX";
' #txt
Ap0 f24 responseActionDecl 'ch.soreco.common.functional.AuthorityGroup out;
' #txt
Ap0 f24 responseMappingAction 'out=in;
out.authorityGroup.OrderBook=result.OrderBook;
out.error=result.error;
out.success=result.success;
' #txt
Ap0 f24 @C|.xml '<?xml version="1.0" encoding="UTF-8" standalone="yes"?>
<elementInfo>
    <language>
        <name>getOrderBook</name>
        <nameStyle>12
</nameStyle>
    </language>
</elementInfo>
' #txt
Ap0 f24 1158 100 36 24 20 -2 #rect
Ap0 f24 @|CallSubIcon #fIcon
Ap0 f25 type ch.soreco.common.functional.AuthorityGroup #txt
Ap0 f25 processCall 'Functional Processes/common/AuthorityGroup:set(ch.soreco.common.bo.AuthorityGroup)' #txt
Ap0 f25 doCall true #txt
Ap0 f25 requestActionDecl '<ch.soreco.common.bo.AuthorityGroup Group> param;
' #txt
Ap0 f25 requestMappingAction 'param.Group=in.authorityGroup;
' #txt
Ap0 f25 responseActionDecl 'ch.soreco.common.functional.AuthorityGroup out;
' #txt
Ap0 f25 responseMappingAction 'out=in;
' #txt
Ap0 f25 @C|.xml '<?xml version="1.0" encoding="UTF-8" standalone="yes"?>
<elementInfo>
    <language>
        <name>setData</name>
        <nameStyle>7
</nameStyle>
    </language>
</elementInfo>
' #txt
Ap0 f25 1158 132 36 24 20 -2 #rect
Ap0 f25 @|CallSubIcon #fIcon
Ap0 f34 actionDecl 'ch.soreco.common.functional.AuthorityGroup out;
' #txt
Ap0 f34 actionTable 'out=in;
out.authorityGroup.Description="Set dispatching authority to all TRX OrderTypes";
out.authorityGroup.GroupName="TRX disp";
out.authorityGroup.id=7;
' #txt
Ap0 f34 actionCode 'import ch.soreco.orderbook.enums.GroupRole;
import ch.ivyteam.ivy.security.IUser;

out.authorityGroup.GroupRole = GroupRole.TeamDisp.name();

List<String> userNames = new List<String>();
userNames.add("BST");
userNames.add("MATRX");
userNames.add("TDTRX");

// prod users bzp 28.06.2011
userNames.add("ZALTO");
userNames.add("ZARPA");
userNames.add("ZKEMA"); //Markus Kerz
userNames.add("ZROHO"); //Horst Rossdeutsch
userNames.add("ZCHJO"); 
userNames.add("ZMCLI");

userNames.add("ZBRNI");
userNames.add("ZCAKA");
userNames.add("ZDABA");
userNames.add("ZDAMU");
userNames.add("ZDRFR");
userNames.add("ZFOAN");
userNames.add("ZGRDA");
userNames.add("ZPAAN");
userNames.add("ZPHTI");
userNames.add("ZSTRO");
userNames.add("ZTSAN");
userNames.add("ZUNNI");
userNames.add("ZVUDO");


List<IUser> users = new List<IUser>();
for (String userName : userNames){
	IUser user = ivy.request.getSecurityContext().findUser(userName);
	if (user != null){
		users.add(user);
	}
}
out.authorityGroup.UserList = users;' #txt
Ap0 f34 type ch.soreco.common.functional.AuthorityGroup #txt
Ap0 f34 @C|.xml '<?xml version="1.0" encoding="UTF-8" standalone="yes"?>
<elementInfo>
    <language>
        <name>setTRXdisp</name>
        <nameStyle>10
</nameStyle>
    </language>
</elementInfo>
' #txt
Ap0 f34 1158 188 36 24 20 -2 #rect
Ap0 f34 @|StepIcon #fIcon
Ap0 f36 actionDecl 'ch.soreco.common.functional.AuthorityGroup out;
' #txt
Ap0 f36 actionTable 'out=in;
out.authorityGroup.Description="Set write authority to all TRX OrderTypes";
out.authorityGroup.GroupName="TRX write";
out.authorityGroup.id=6;
' #txt
Ap0 f36 actionCode 'import ch.soreco.orderbook.enums.GroupRole;
import ch.ivyteam.ivy.security.IUser;

out.authorityGroup.GroupRole = GroupRole.Write.name();

List<String> userNames = new List<String>();

//Test User
userNames.add("HORO");
userNames.add("AIM");
userNames.add("AI");
userNames.add("BST");
userNames.add("PB");
userNames.add("MATRX");

// prod users bzp 28.06.2011
userNames.add("ZALTO");
userNames.add("ZARPA");
userNames.add("ZKEMA"); //Markus Kerz
userNames.add("ZROHO"); //Horst Rossdeutsch
userNames.add("ZCHJO"); 
userNames.add("ZMCLI");

userNames.add("ZBRNI");
userNames.add("ZCAKA");
userNames.add("ZDABA");
userNames.add("ZDAMU");
userNames.add("ZDRFR");
userNames.add("ZFOAN");
userNames.add("ZGRDA");
userNames.add("ZPAAN");
userNames.add("ZPHTI");
userNames.add("ZSTRO");
userNames.add("ZTSAN");
userNames.add("ZUNNI");
userNames.add("ZVUDO");


List<IUser> users = new List<IUser>();
for (String userName : userNames){
	IUser user = ivy.request.getSecurityContext().findUser(userName);
	if (user != null){
		users.add(user);
	}
}
out.authorityGroup.UserList = users;' #txt
Ap0 f36 type ch.soreco.common.functional.AuthorityGroup #txt
Ap0 f36 @C|.xml '<?xml version="1.0" encoding="UTF-8" standalone="yes"?>
<elementInfo>
    <language>
        <name>setTRXwrite</name>
        <nameStyle>11
</nameStyle>
    </language>
</elementInfo>
' #txt
Ap0 f36 1158 68 36 24 20 -2 #rect
Ap0 f36 @|StepIcon #fIcon
Ap0 f37 type ch.soreco.common.functional.AuthorityGroup #txt
Ap0 f37 processCall 'Functional Processes/common/AuthorityGroup:set(ch.soreco.common.bo.AuthorityGroup)' #txt
Ap0 f37 doCall true #txt
Ap0 f37 requestActionDecl '<ch.soreco.common.bo.AuthorityGroup Group> param;
' #txt
Ap0 f37 requestMappingAction 'param.Group=in.authorityGroup;
' #txt
Ap0 f37 responseActionDecl 'ch.soreco.common.functional.AuthorityGroup out;
' #txt
Ap0 f37 responseMappingAction 'out=in;
' #txt
Ap0 f37 @C|.xml '<?xml version="1.0" encoding="UTF-8" standalone="yes"?>
<elementInfo>
    <language>
        <name>setData</name>
        <nameStyle>7
</nameStyle>
    </language>
</elementInfo>
' #txt
Ap0 f37 1158 220 36 24 20 -2 #rect
Ap0 f37 @|CallSubIcon #fIcon
Ap0 f38 expr out #txt
Ap0 f38 1176 92 1176 100 #arcP
Ap0 f39 expr out #txt
Ap0 f39 1176 124 1176 132 #arcP
Ap0 f40 expr out #txt
Ap0 f40 1176 156 1176 188 #arcP
Ap0 f41 expr out #txt
Ap0 f41 1176 212 1176 220 #arcP
Ap0 f42 expr out #txt
Ap0 f42 1036 220 1164 92 #arcP
Ap0 f44 inParamDecl '<ch.soreco.common.bo.AuthorityGroup Group> param;' #txt
Ap0 f44 inParamTable 'out.filter=param.Group;
' #txt
Ap0 f44 outParamDecl '<java.lang.Boolean success,java.lang.String error,ch.soreco.common.bo.AuthorityGroup Group> result;
' #txt
Ap0 f44 outParamTable 'result.success=in.success;
result.error=in.error;
result.Group=in.authorityGroup;
' #txt
Ap0 f44 actionDecl 'ch.soreco.common.functional.AuthorityGroup out;
' #txt
Ap0 f44 callSignature get(ch.soreco.common.bo.AuthorityGroup) #txt
Ap0 f44 type ch.soreco.common.functional.AuthorityGroup #txt
Ap0 f44 @C|.xml '<?xml version="1.0" encoding="UTF-8" standalone="yes"?>
<elementInfo>
    <language>
        <name>get(AuthorityGroup)</name>
        <nameStyle>19,5,7
</nameStyle>
    </language>
</elementInfo>
' #txt
Ap0 f44 275 35 26 26 14 0 #rect
Ap0 f44 @|StartSubIcon #fIcon
Ap0 f45 type ch.soreco.common.functional.AuthorityGroup #txt
Ap0 f45 275 147 26 26 14 0 #rect
Ap0 f45 @|EndSubIcon #fIcon
Ap0 f47 actionDecl 'ch.soreco.common.functional.AuthorityGroup out;
' #txt
Ap0 f47 actionTable 'out=in;
' #txt
Ap0 f47 actionCode 'import ch.ivyteam.ivy.security.IUser;
import ch.soreco.common.bo.AuthorityGroup;
import ch.soreco.webbies.common.db.EntityFilter;

List found = EntityFilter.filter(in.filter,ivy.persistence.Adressmutation);
String userStr = "";
if (in.filter.User != null){
	userStr = in.filter.User.getName();
}

if(found.size()>0) {
	for(AuthorityGroup match : found){
		//Filter for User
		if (match.getUsers().contains(userStr)){
			out.authorityGroup = match;
			out.success = true;
		}
	}
}
else {
	out.error = "No such AuthorityGroup found.";
	out.success = false;
}



List<String> userNames = in.authorityGroup.Users.split(", ");

List<IUser> users = new List<IUser>();
for (String userName : userNames){
	IUser user = ivy.request.getSecurityContext().findUser(userName);
	if (user != null){
		users.add(user);
	}
}
out.authorityGroup.UserList = users;
' #txt
Ap0 f47 type ch.soreco.common.functional.AuthorityGroup #txt
Ap0 f47 @C|.xml '<?xml version="1.0" encoding="UTF-8" standalone="yes"?>
<elementInfo>
    <language>
        <name>get AuthorityGroup</name>
        <nameStyle>18
</nameStyle>
    </language>
</elementInfo>
' #txt
Ap0 f47 270 92 36 24 20 -2 #rect
Ap0 f47 @|StepIcon #fIcon
Ap0 f48 expr out #txt
Ap0 f48 288 61 288 92 #arcP
Ap0 f46 expr out #txt
Ap0 f46 288 116 288 147 #arcP
Ap0 f53 inParamDecl '<ch.soreco.common.bo.AuthorityGroup filter> param;' #txt
Ap0 f53 inParamTable 'out.filter=param.filter;
' #txt
Ap0 f53 outParamDecl '<java.lang.String error,java.lang.Boolean success,List<ch.soreco.common.bo.AuthorityGroup> Groups> result;
' #txt
Ap0 f53 outParamTable 'result.error=in.error;
result.success=in.success;
result.Groups=in.authorityGroups;
' #txt
Ap0 f53 actionDecl 'ch.soreco.common.functional.AuthorityGroup out;
' #txt
Ap0 f53 callSignature getList(ch.soreco.common.bo.AuthorityGroup) #txt
Ap0 f53 type ch.soreco.common.functional.AuthorityGroup #txt
Ap0 f53 @C|.xml '<?xml version="1.0" encoding="UTF-8" standalone="yes"?>
<elementInfo>
    <language>
        <name>getList(AuthorityGroup)</name>
        <nameStyle>23,5,7
</nameStyle>
    </language>
</elementInfo>
' #txt
Ap0 f53 451 35 26 26 14 0 #rect
Ap0 f53 @|StartSubIcon #fIcon
Ap0 f56 actionDecl 'ch.soreco.common.functional.AuthorityGroup out;
' #txt
Ap0 f56 actionTable 'out=in;
' #txt
Ap0 f56 actionCode 'import ch.ivyteam.ivy.security.IUser;
import ch.soreco.common.bo.AuthorityGroup;
import ch.soreco.webbies.common.db.EntityFilter;

List found = EntityFilter.filter(in.filter,ivy.persistence.Adressmutation);
String userStr = "";
if (in.filter.User != null){
	userStr = in.filter.User.getName();
}

if(found!=null) {
	if(found.size()>0){
		for(AuthorityGroup match : found){
			//Filter for User
			if (match.getUsers().contains(userStr)){

				//read all Useres
				List<String> userNames = in.authorityGroup.Users.split(", ");
				List<IUser> users = new List<IUser>();
				
				for (String userName : userNames){
					IUser user = ivy.request.getSecurityContext().findUser(userName);
					if (user != null){
						users.add(user);
					}
				}
				match.UserList = users;

				//add AuthorityGroup
				out.authorityGroups.add(match);
			}
		}
	}
}
if (in.authorityGroups.size()<1){
	out.error = "No such AuthorityGroups found.";
	out.success = false;
}

' #txt
Ap0 f56 type ch.soreco.common.functional.AuthorityGroup #txt
Ap0 f56 @C|.xml '<?xml version="1.0" encoding="UTF-8" standalone="yes"?>
<elementInfo>
    <language>
        <name>get Groups</name>
        <nameStyle>10
</nameStyle>
    </language>
</elementInfo>
' #txt
Ap0 f56 446 92 36 24 20 -2 #rect
Ap0 f56 @|StepIcon #fIcon
Ap0 f67 type ch.soreco.common.functional.AuthorityGroup #txt
Ap0 f67 451 147 26 26 14 0 #rect
Ap0 f67 @|EndSubIcon #fIcon
Ap0 f81 expr out #txt
Ap0 f81 464 61 464 92 #arcP
Ap0 f86 expr out #txt
Ap0 f86 464 116 464 147 #arcP
Ap0 f62 expr out #txt
Ap0 f62 856 156 856 180 #arcP
Ap0 f31 expr out #txt
Ap0 f31 856 236 856 252 #arcP
Ap0 f15 expr out #txt
Ap0 f15 864 316 1016 92 #arcP
Ap0 f33 type ch.soreco.common.functional.AuthorityGroup #txt
Ap0 f33 processCall 'Functional Processes/orderbook/OrderBook:get(Boolean,ch.soreco.orderbook.bo.OrderBook)' #txt
Ap0 f33 doCall true #txt
Ap0 f33 requestActionDecl '<java.lang.Boolean withoutTypes,ch.soreco.orderbook.bo.OrderBook filter> param;
' #txt
Ap0 f33 requestMappingAction 'param.filter.shortname="Disp";
' #txt
Ap0 f33 responseActionDecl 'ch.soreco.common.functional.AuthorityGroup out;
' #txt
Ap0 f33 responseMappingAction 'out=in;
out.authorityGroup.OrderBook=result.OrderBook;
out.error=result.error;
out.success=result.success;
' #txt
Ap0 f33 @C|.xml '<?xml version="1.0" encoding="UTF-8" standalone="yes"?>
<elementInfo>
    <language>
        <name>getOrderBook</name>
        <nameStyle>12
</nameStyle>
    </language>
</elementInfo>
' #txt
Ap0 f33 838 284 36 24 20 -2 #rect
Ap0 f33 @|CallSubIcon #fIcon
Ap0 f32 expr out #txt
Ap0 f32 856 308 856 316 #arcP
Ap0 f49 expr out #txt
Ap0 f49 838 276 838 316 #arcP
Ap0 f49 1 808 296 #addKink
Ap0 f49 0 1.0 0 0 #arcLabel
Ap0 f52 expr out #txt
Ap0 f52 856 53 856 68 #arcP
Ap0 f149 actionDecl 'ch.soreco.common.functional.AuthorityGroup out;
' #txt
Ap0 f149 actionTable 'out=in;
' #txt
Ap0 f149 actionCode 'import ch.soreco.orderbook.util.Authority;

Authority.buildInstance();' #txt
Ap0 f149 type ch.soreco.common.functional.AuthorityGroup #txt
Ap0 f149 @C|.xml '<?xml version="1.0" encoding="UTF-8" standalone="yes"?>
<elementInfo>
    <language>
        <name>rebuild Authority</name>
        <nameStyle>17
</nameStyle>
    </language>
</elementInfo>
' #txt
Ap0 f149 1158 348 36 24 20 -2 #rect
Ap0 f149 @|StepIcon #fIcon
Ap0 f43 expr out #txt
Ap0 f43 1158 360 869 360 #arcP
Ap0 f54 type ch.soreco.common.functional.AuthorityGroup #txt
Ap0 f54 processCall 'Functional Processes/orderbook/OrderBook:get(Boolean,ch.soreco.orderbook.bo.OrderBook)' #txt
Ap0 f54 doCall true #txt
Ap0 f54 requestActionDecl '<java.lang.Boolean withoutTypes,ch.soreco.orderbook.bo.OrderBook filter> param;
' #txt
Ap0 f54 requestMappingAction 'param.filter.shortname="AO";
' #txt
Ap0 f54 responseActionDecl 'ch.soreco.common.functional.AuthorityGroup out;
' #txt
Ap0 f54 responseMappingAction 'out=in;
out.authorityGroup.OrderBook=result.OrderBook;
out.error=result.error;
out.success=result.success;
' #txt
Ap0 f54 @C|.xml '<?xml version="1.0" encoding="UTF-8" standalone="yes"?>
<elementInfo>
    <language>
        <name>getOrderBook</name>
        <nameStyle>12
</nameStyle>
    </language>
</elementInfo>
' #txt
Ap0 f54 1302 100 36 24 20 -2 #rect
Ap0 f54 @|CallSubIcon #fIcon
Ap0 f55 actionDecl 'ch.soreco.common.functional.AuthorityGroup out;
' #txt
Ap0 f55 actionTable 'out=in;
out.authorityGroup.Description="Set write authority to all AO OrderTypes";
out.authorityGroup.GroupName="AO write";
out.authorityGroup.id=8;
' #txt
Ap0 f55 actionCode 'import ch.soreco.orderbook.enums.GroupRole;
import ch.ivyteam.ivy.security.IUser;

out.authorityGroup.GroupRole = GroupRole.Write.name();

List<String> userNames = new List<String>();

//Test User
userNames.add("AIM");
userNames.add("AI");
userNames.add("BST");
userNames.add("PB");


// prod users bzp 28.06.2011
userNames.add("ZALTO");
userNames.add("ZARPA");
userNames.add("ZKEMA"); //Markus Kerz
userNames.add("ZROHO"); //Horst Rossdeutsch
userNames.add("ZCHJO"); 
userNames.add("ZMCLI");

userNames.add("ZAOKA");
userNames.add("ZBEHO");
userNames.add("ZBRLA");
userNames.add("ZMAAN");
userNames.add("ZMOFR");
userNames.add("ZPEAM");
userNames.add("ZSTCO");



List<IUser> users = new List<IUser>();
for (String userName : userNames){
	IUser user = ivy.request.getSecurityContext().findUser(userName);
	if (user != null){
		users.add(user);
	}
}
out.authorityGroup.UserList = users;' #txt
Ap0 f55 type ch.soreco.common.functional.AuthorityGroup #txt
Ap0 f55 @C|.xml '<?xml version="1.0" encoding="UTF-8" standalone="yes"?>
<elementInfo>
    <language>
        <name>setAOwrite</name>
        <nameStyle>10
</nameStyle>
    </language>
</elementInfo>
' #txt
Ap0 f55 1302 68 36 24 20 -2 #rect
Ap0 f55 @|StepIcon #fIcon
Ap0 f57 type ch.soreco.common.functional.AuthorityGroup #txt
Ap0 f57 processCall 'Functional Processes/common/AuthorityGroup:set(ch.soreco.common.bo.AuthorityGroup)' #txt
Ap0 f57 doCall true #txt
Ap0 f57 requestActionDecl '<ch.soreco.common.bo.AuthorityGroup Group> param;
' #txt
Ap0 f57 requestMappingAction 'param.Group=in.authorityGroup;
' #txt
Ap0 f57 responseActionDecl 'ch.soreco.common.functional.AuthorityGroup out;
' #txt
Ap0 f57 responseMappingAction 'out=in;
' #txt
Ap0 f57 @C|.xml '<?xml version="1.0" encoding="UTF-8" standalone="yes"?>
<elementInfo>
    <language>
        <name>setData</name>
        <nameStyle>7
</nameStyle>
    </language>
</elementInfo>
' #txt
Ap0 f57 1302 220 36 24 20 -2 #rect
Ap0 f57 @|CallSubIcon #fIcon
Ap0 f58 type ch.soreco.common.functional.AuthorityGroup #txt
Ap0 f58 processCall 'Functional Processes/common/AuthorityGroup:set(ch.soreco.common.bo.AuthorityGroup)' #txt
Ap0 f58 doCall true #txt
Ap0 f58 requestActionDecl '<ch.soreco.common.bo.AuthorityGroup Group> param;
' #txt
Ap0 f58 requestMappingAction 'param.Group=in.authorityGroup;
' #txt
Ap0 f58 responseActionDecl 'ch.soreco.common.functional.AuthorityGroup out;
' #txt
Ap0 f58 responseMappingAction 'out=in;
' #txt
Ap0 f58 @C|.xml '<?xml version="1.0" encoding="UTF-8" standalone="yes"?>
<elementInfo>
    <language>
        <name>setData</name>
        <nameStyle>7
</nameStyle>
    </language>
</elementInfo>
' #txt
Ap0 f58 1302 132 36 24 20 -2 #rect
Ap0 f58 @|CallSubIcon #fIcon
Ap0 f59 actionDecl 'ch.soreco.common.functional.AuthorityGroup out;
' #txt
Ap0 f59 actionTable 'out=in;
out.authorityGroup.Description="Set dispatching authority to all AO OrderTypes";
out.authorityGroup.GroupName="AO disp";
out.authorityGroup.id=9;
' #txt
Ap0 f59 actionCode 'import ch.soreco.orderbook.enums.GroupRole;
import ch.ivyteam.ivy.security.IUser;

out.authorityGroup.GroupRole = GroupRole.TeamDisp.name();

List<String> userNames = new List<String>();
userNames.add("BST");
userNames.add("MATRX");
userNames.add("TDTRX");


// prod users bzp 28.06.2011
userNames.add("ZALTO");
userNames.add("ZARPA");
userNames.add("ZKEMA"); //Markus Kerz
userNames.add("ZROHO"); //Horst Rossdeutsch
userNames.add("ZCHJO"); 
userNames.add("ZMCLI");

userNames.add("ZAOKA");
userNames.add("ZBEHO");
userNames.add("ZBRLA");
userNames.add("ZMAAN");
userNames.add("ZMOFR");
userNames.add("ZPEAM");
userNames.add("ZSTCO");



List<IUser> users = new List<IUser>();
for (String userName : userNames){
	IUser user = ivy.request.getSecurityContext().findUser(userName);
	if (user != null){
		users.add(user);
	}
}
out.authorityGroup.UserList = users;' #txt
Ap0 f59 type ch.soreco.common.functional.AuthorityGroup #txt
Ap0 f59 @C|.xml '<?xml version="1.0" encoding="UTF-8" standalone="yes"?>
<elementInfo>
    <language>
        <name>setAOdisp</name>
        <nameStyle>9
</nameStyle>
    </language>
</elementInfo>
' #txt
Ap0 f59 1302 188 36 24 20 -2 #rect
Ap0 f59 @|StepIcon #fIcon
Ap0 f60 expr out #txt
Ap0 f60 1320 92 1320 100 #arcP
Ap0 f61 expr out #txt
Ap0 f61 1320 124 1320 132 #arcP
Ap0 f63 expr out #txt
Ap0 f63 1320 156 1320 188 #arcP
Ap0 f64 expr out #txt
Ap0 f64 1320 212 1320 220 #arcP
Ap0 f65 expr out #txt
Ap0 f65 1187 220 1309 92 #arcP
Ap0 f51 type ch.soreco.common.functional.AuthorityGroup #txt
Ap0 f51 processCall 'Functional Processes/orderbook/OrderBook:get(Boolean,ch.soreco.orderbook.bo.OrderBook)' #txt
Ap0 f51 doCall true #txt
Ap0 f51 requestActionDecl '<java.lang.Boolean withoutTypes,ch.soreco.orderbook.bo.OrderBook filter> param;
' #txt
Ap0 f51 requestMappingAction 'param.filter.shortname="TRX";
' #txt
Ap0 f51 responseActionDecl 'ch.soreco.common.functional.AuthorityGroup out;
' #txt
Ap0 f51 responseMappingAction 'out=in;
out.authorityGroup.OrderBook=result.OrderBook;
out.error=result.error;
out.success=result.success;
' #txt
Ap0 f51 @C|.xml '<?xml version="1.0" encoding="UTF-8" standalone="yes"?>
<elementInfo>
    <language>
        <name>getOrderBook</name>
        <nameStyle>12
</nameStyle>
    </language>
</elementInfo>
' #txt
Ap0 f51 1430 100 36 24 20 -2 #rect
Ap0 f51 @|CallSubIcon #fIcon
Ap0 f51 -613726|-1|-16777216 #nodeStyle
Ap0 f66 type ch.soreco.common.functional.AuthorityGroup #txt
Ap0 f66 processCall 'Functional Processes/common/AuthorityGroup:set(ch.soreco.common.bo.AuthorityGroup)' #txt
Ap0 f66 doCall true #txt
Ap0 f66 requestActionDecl '<ch.soreco.common.bo.AuthorityGroup Group> param;
' #txt
Ap0 f66 requestMappingAction 'param.Group=in.authorityGroup;
' #txt
Ap0 f66 responseActionDecl 'ch.soreco.common.functional.AuthorityGroup out;
' #txt
Ap0 f66 responseMappingAction 'out=in;
' #txt
Ap0 f66 @C|.xml '<?xml version="1.0" encoding="UTF-8" standalone="yes"?>
<elementInfo>
    <language>
        <name>setData</name>
        <nameStyle>7
</nameStyle>
    </language>
</elementInfo>
' #txt
Ap0 f66 1430 132 36 24 20 -2 #rect
Ap0 f66 @|CallSubIcon #fIcon
Ap0 f66 -613726|-1|-16777216 #nodeStyle
Ap0 f68 actionDecl 'ch.soreco.common.functional.AuthorityGroup out;
' #txt
Ap0 f68 actionTable 'out=in;
out.authorityGroup.Description="Set dispatching authority to all MT OrderTypes";
out.authorityGroup.GroupName="MT disp";
out.authorityGroup.id=11;
' #txt
Ap0 f68 actionCode 'import ch.soreco.orderbook.enums.GroupRole;
import ch.ivyteam.ivy.security.IUser;

out.authorityGroup.GroupRole = GroupRole.TeamDisp.name();

List<String> userNames = new List<String>();
userNames.add("BST");
userNames.add("MATRX");
userNames.add("TDTRX");


// prod users bzp 28.06.2011
userNames.add("ZALTO");
userNames.add("ZARPA");
userNames.add("ZKEMA"); //Markus Kerz
userNames.add("ZROHO"); //Horst Rossdeutsch
userNames.add("ZCHJO"); 
userNames.add("ZMCLI");

userNames.add("ZFLSI");
userNames.add("ZHEVE");
userNames.add("ZMANE");
userNames.add("ZROIN");
userNames.add("ZSIDO");
userNames.add("ZSONI");



List<IUser> users = new List<IUser>();
for (String userName : userNames){
	IUser user = ivy.request.getSecurityContext().findUser(userName);
	if (user != null){
		users.add(user);
	}
}
out.authorityGroup.UserList = users;' #txt
Ap0 f68 type ch.soreco.common.functional.AuthorityGroup #txt
Ap0 f68 @C|.xml '<?xml version="1.0" encoding="UTF-8" standalone="yes"?>
<elementInfo>
    <language>
        <name>setMTdisp</name>
        <nameStyle>9
</nameStyle>
    </language>
</elementInfo>
' #txt
Ap0 f68 1430 188 36 24 20 -2 #rect
Ap0 f68 @|StepIcon #fIcon
Ap0 f68 -613726|-1|-16777216 #nodeStyle
Ap0 f69 actionDecl 'ch.soreco.common.functional.AuthorityGroup out;
' #txt
Ap0 f69 actionTable 'out=in;
out.authorityGroup.Description="Set write authority to all MT OrderTypes";
out.authorityGroup.GroupName="MT write";
out.authorityGroup.id=10;
' #txt
Ap0 f69 actionCode 'import ch.soreco.orderbook.enums.GroupRole;
import ch.ivyteam.ivy.security.IUser;

out.authorityGroup.GroupRole = GroupRole.Write.name();

List<String> userNames = new List<String>();

//Test User
userNames.add("AIM");
userNames.add("AI");
userNames.add("BST");
userNames.add("PB");


// prod users bzp 28.06.2011
userNames.add("ZALTO");
userNames.add("ZARPA");
userNames.add("ZKEMA"); //Markus Kerz
userNames.add("ZROHO"); //Horst Rossdeutsch
userNames.add("ZCHJO"); 
userNames.add("ZMCLI");

userNames.add("ZFLSI");
userNames.add("ZHEVE");
userNames.add("ZMANE");
userNames.add("ZROIN");
userNames.add("ZSIDO");
userNames.add("ZSONI");



List<IUser> users = new List<IUser>();
for (String userName : userNames){
	IUser user = ivy.request.getSecurityContext().findUser(userName);
	if (user != null){
		users.add(user);
	}
}
out.authorityGroup.UserList = users;' #txt
Ap0 f69 type ch.soreco.common.functional.AuthorityGroup #txt
Ap0 f69 @C|.xml '<?xml version="1.0" encoding="UTF-8" standalone="yes"?>
<elementInfo>
    <language>
        <name>setMTwrite</name>
        <nameStyle>10
</nameStyle>
    </language>
</elementInfo>
' #txt
Ap0 f69 1430 68 36 24 20 -2 #rect
Ap0 f69 @|StepIcon #fIcon
Ap0 f69 -613726|-1|-16777216 #nodeStyle
Ap0 f70 type ch.soreco.common.functional.AuthorityGroup #txt
Ap0 f70 processCall 'Functional Processes/common/AuthorityGroup:set(ch.soreco.common.bo.AuthorityGroup)' #txt
Ap0 f70 doCall true #txt
Ap0 f70 requestActionDecl '<ch.soreco.common.bo.AuthorityGroup Group> param;
' #txt
Ap0 f70 requestMappingAction 'param.Group=in.authorityGroup;
' #txt
Ap0 f70 responseActionDecl 'ch.soreco.common.functional.AuthorityGroup out;
' #txt
Ap0 f70 responseMappingAction 'out=in;
' #txt
Ap0 f70 @C|.xml '<?xml version="1.0" encoding="UTF-8" standalone="yes"?>
<elementInfo>
    <language>
        <name>setData</name>
        <nameStyle>7
</nameStyle>
    </language>
</elementInfo>
' #txt
Ap0 f70 1430 220 36 24 20 -2 #rect
Ap0 f70 @|CallSubIcon #fIcon
Ap0 f70 -613726|-1|-16777216 #nodeStyle
Ap0 f71 expr out #txt
Ap0 f71 1448 92 1448 100 #arcP
Ap0 f72 expr out #txt
Ap0 f72 1448 124 1448 132 #arcP
Ap0 f73 expr out #txt
Ap0 f73 1448 156 1448 188 #arcP
Ap0 f74 expr out #txt
Ap0 f74 1448 212 1448 220 #arcP
Ap0 f76 type ch.soreco.common.functional.AuthorityGroup #txt
Ap0 f76 processCall 'Functional Processes/common/AuthorityGroup:set(ch.soreco.common.bo.AuthorityGroup)' #txt
Ap0 f76 doCall true #txt
Ap0 f76 requestActionDecl '<ch.soreco.common.bo.AuthorityGroup Group> param;
' #txt
Ap0 f76 requestMappingAction 'param.Group=in.authorityGroup;
' #txt
Ap0 f76 responseActionDecl 'ch.soreco.common.functional.AuthorityGroup out;
' #txt
Ap0 f76 responseMappingAction 'out=in;
' #txt
Ap0 f76 @C|.xml '<?xml version="1.0" encoding="UTF-8" standalone="yes"?>
<elementInfo>
    <language>
        <name>setData</name>
        <nameStyle>7
</nameStyle>
    </language>
</elementInfo>
' #txt
Ap0 f76 1566 132 36 24 20 -2 #rect
Ap0 f76 @|CallSubIcon #fIcon
Ap0 f77 type ch.soreco.common.functional.AuthorityGroup #txt
Ap0 f77 processCall 'Functional Processes/orderbook/OrderBook:get(Boolean,ch.soreco.orderbook.bo.OrderBook)' #txt
Ap0 f77 doCall true #txt
Ap0 f77 requestActionDecl '<java.lang.Boolean withoutTypes,ch.soreco.orderbook.bo.OrderBook filter> param;
' #txt
Ap0 f77 requestMappingAction 'param.filter.shortname="SL";
' #txt
Ap0 f77 responseActionDecl 'ch.soreco.common.functional.AuthorityGroup out;
' #txt
Ap0 f77 responseMappingAction 'out=in;
out.authorityGroup.OrderBook=result.OrderBook;
out.error=result.error;
out.success=result.success;
' #txt
Ap0 f77 @C|.xml '<?xml version="1.0" encoding="UTF-8" standalone="yes"?>
<elementInfo>
    <language>
        <name>getOrderBook</name>
        <nameStyle>12
</nameStyle>
    </language>
</elementInfo>
' #txt
Ap0 f77 1566 100 36 24 20 -2 #rect
Ap0 f77 @|CallSubIcon #fIcon
Ap0 f78 type ch.soreco.common.functional.AuthorityGroup #txt
Ap0 f78 processCall 'Functional Processes/common/AuthorityGroup:set(ch.soreco.common.bo.AuthorityGroup)' #txt
Ap0 f78 doCall true #txt
Ap0 f78 requestActionDecl '<ch.soreco.common.bo.AuthorityGroup Group> param;
' #txt
Ap0 f78 requestMappingAction 'param.Group=in.authorityGroup;
' #txt
Ap0 f78 responseActionDecl 'ch.soreco.common.functional.AuthorityGroup out;
' #txt
Ap0 f78 responseMappingAction 'out=in;
' #txt
Ap0 f78 @C|.xml '<?xml version="1.0" encoding="UTF-8" standalone="yes"?>
<elementInfo>
    <language>
        <name>setData</name>
        <nameStyle>7
</nameStyle>
    </language>
</elementInfo>
' #txt
Ap0 f78 1566 220 36 24 20 -2 #rect
Ap0 f78 @|CallSubIcon #fIcon
Ap0 f79 actionDecl 'ch.soreco.common.functional.AuthorityGroup out;
' #txt
Ap0 f79 actionTable 'out=in;
out.authorityGroup.Description="Set dispatching authority to all SL OrderTypes";
out.authorityGroup.GroupName="SL disp";
out.authorityGroup.id=11;
' #txt
Ap0 f79 actionCode 'import ch.soreco.orderbook.enums.GroupRole;
import ch.ivyteam.ivy.security.IUser;

out.authorityGroup.GroupRole = GroupRole.TeamDisp.name();

List<String> userNames = new List<String>();
userNames.add("BST");
userNames.add("MATRX");
userNames.add("TDTRX");


// prod users bzp 28.06.2011
userNames.add("ZALTO");
userNames.add("ZARPA");
userNames.add("ZKEMA"); //Markus Kerz
userNames.add("ZROHO"); //Horst Rossdeutsch
userNames.add("ZCHJO"); 
userNames.add("ZMCLI");

userNames.add("ZBEFA");
userNames.add("ZBEMA");
userNames.add("ZCATA");
userNames.add("ZEVCO");
userNames.add("ZFAFA");
userNames.add("ZHOCE");
userNames.add("ZMAMA");
userNames.add("ZMUMI");
userNames.add("ZROBC");
userNames.add("ZSHCO");
userNames.add("ZTEDA");
userNames.add("ZTOMA");
userNames.add("ZZAMA");


List<IUser> users = new List<IUser>();
for (String userName : userNames){
	IUser user = ivy.request.getSecurityContext().findUser(userName);
	if (user != null){
		users.add(user);
	}
}
out.authorityGroup.UserList = users;' #txt
Ap0 f79 type ch.soreco.common.functional.AuthorityGroup #txt
Ap0 f79 @C|.xml '<?xml version="1.0" encoding="UTF-8" standalone="yes"?>
<elementInfo>
    <language>
        <name>setSLdisp</name>
        <nameStyle>9
</nameStyle>
    </language>
</elementInfo>
' #txt
Ap0 f79 1566 188 36 24 20 -2 #rect
Ap0 f79 @|StepIcon #fIcon
Ap0 f80 actionDecl 'ch.soreco.common.functional.AuthorityGroup out;
' #txt
Ap0 f80 actionTable 'out=in;
out.authorityGroup.Description="Set write authority to all SL OrderTypes";
out.authorityGroup.GroupName="SL write";
out.authorityGroup.id=10;
' #txt
Ap0 f80 actionCode 'import ch.soreco.orderbook.enums.GroupRole;
import ch.ivyteam.ivy.security.IUser;

out.authorityGroup.GroupRole = GroupRole.Write.name();

List<String> userNames = new List<String>();

//Test User
userNames.add("AIM");
userNames.add("AI");
userNames.add("BST");
userNames.add("PB");


// prod users bzp 28.06.2011
userNames.add("ZALTO");
userNames.add("ZARPA");
userNames.add("ZKEMA"); //Markus Kerz
userNames.add("ZROHO"); //Horst Rossdeutsch
userNames.add("ZCHJO"); 
userNames.add("ZMCLI");

userNames.add("ZBEFA");
userNames.add("ZBEMA");
userNames.add("ZCATA");
userNames.add("ZEVCO");
userNames.add("ZFAFA");
userNames.add("ZHOCE");
userNames.add("ZMAMA");
userNames.add("ZMUMI");
userNames.add("ZROBC");
userNames.add("ZSHCO");
userNames.add("ZTEDA");
userNames.add("ZTOMA");
userNames.add("ZZAMA");



List<IUser> users = new List<IUser>();
for (String userName : userNames){
	IUser user = ivy.request.getSecurityContext().findUser(userName);
	if (user != null){
		users.add(user);
	}
}
out.authorityGroup.UserList = users;' #txt
Ap0 f80 type ch.soreco.common.functional.AuthorityGroup #txt
Ap0 f80 @C|.xml '<?xml version="1.0" encoding="UTF-8" standalone="yes"?>
<elementInfo>
    <language>
        <name>setSLwrite</name>
        <nameStyle>10
</nameStyle>
    </language>
</elementInfo>
' #txt
Ap0 f80 1566 68 36 24 20 -2 #rect
Ap0 f80 @|StepIcon #fIcon
Ap0 f82 expr out #txt
Ap0 f82 1584 92 1584 100 #arcP
Ap0 f83 expr out #txt
Ap0 f83 1584 124 1584 132 #arcP
Ap0 f84 expr out #txt
Ap0 f84 1584 156 1584 188 #arcP
Ap0 f85 expr out #txt
Ap0 f85 1584 212 1584 220 #arcP
Ap0 f87 expr out #txt
Ap0 f87 1459 220 1573 92 #arcP
Ap0 f88 type ch.soreco.common.functional.AuthorityGroup #txt
Ap0 f88 processCall 'Functional Processes/common/AuthorityGroup:set(ch.soreco.common.bo.AuthorityGroup)' #txt
Ap0 f88 doCall true #txt
Ap0 f88 requestActionDecl '<ch.soreco.common.bo.AuthorityGroup Group> param;
' #txt
Ap0 f88 requestMappingAction 'param.Group=in.authorityGroup;
' #txt
Ap0 f88 responseActionDecl 'ch.soreco.common.functional.AuthorityGroup out;
' #txt
Ap0 f88 responseMappingAction 'out=in;
' #txt
Ap0 f88 @C|.xml '<?xml version="1.0" encoding="UTF-8" standalone="yes"?>
<elementInfo>
    <language>
        <name>setData</name>
        <nameStyle>7
</nameStyle>
    </language>
</elementInfo>
' #txt
Ap0 f88 1702 220 36 24 20 -2 #rect
Ap0 f88 @|CallSubIcon #fIcon
Ap0 f88 -613726|-1|-16777216 #nodeStyle
Ap0 f89 actionDecl 'ch.soreco.common.functional.AuthorityGroup out;
' #txt
Ap0 f89 actionTable 'out=in;
out.authorityGroup.Description="Set dispatching authority to all ST OrderTypes";
out.authorityGroup.GroupName="ST disp";
out.authorityGroup.id=15;
' #txt
Ap0 f89 actionCode 'import ch.soreco.orderbook.enums.GroupRole;
import ch.ivyteam.ivy.security.IUser;

out.authorityGroup.GroupRole = GroupRole.TeamDisp.name();

List<String> userNames = new List<String>();
userNames.add("BST");
userNames.add("MATRX");
userNames.add("TDTRX");


// prod users bzp 28.06.2011
userNames.add("ZALTO");
userNames.add("ZARPA");
userNames.add("ZKEMA"); //Markus Kerz
userNames.add("ZROHO"); //Horst Rossdeutsch
userNames.add("ZCHJO"); 
userNames.add("ZMCLI");

userNames.add("ZJAGI");


List<IUser> users = new List<IUser>();
for (String userName : userNames){
	IUser user = ivy.request.getSecurityContext().findUser(userName);
	if (user != null){
		users.add(user);
	}
}
out.authorityGroup.UserList = users;' #txt
Ap0 f89 type ch.soreco.common.functional.AuthorityGroup #txt
Ap0 f89 @C|.xml '<?xml version="1.0" encoding="UTF-8" standalone="yes"?>
<elementInfo>
    <language>
        <name>setSTdisp</name>
        <nameStyle>9
</nameStyle>
    </language>
</elementInfo>
' #txt
Ap0 f89 1702 188 36 24 20 -2 #rect
Ap0 f89 @|StepIcon #fIcon
Ap0 f89 -613726|-1|-16777216 #nodeStyle
Ap0 f90 type ch.soreco.common.functional.AuthorityGroup #txt
Ap0 f90 processCall 'Functional Processes/orderbook/OrderBook:get(Boolean,ch.soreco.orderbook.bo.OrderBook)' #txt
Ap0 f90 doCall true #txt
Ap0 f90 requestActionDecl '<java.lang.Boolean withoutTypes,ch.soreco.orderbook.bo.OrderBook filter> param;
' #txt
Ap0 f90 requestMappingAction 'param.filter.shortname="TRX";
' #txt
Ap0 f90 responseActionDecl 'ch.soreco.common.functional.AuthorityGroup out;
' #txt
Ap0 f90 responseMappingAction 'out=in;
out.authorityGroup.OrderBook=result.OrderBook;
out.error=result.error;
out.success=result.success;
' #txt
Ap0 f90 @C|.xml '<?xml version="1.0" encoding="UTF-8" standalone="yes"?>
<elementInfo>
    <language>
        <name>getOrderBook</name>
        <nameStyle>12
</nameStyle>
    </language>
</elementInfo>
' #txt
Ap0 f90 1702 100 36 24 20 -2 #rect
Ap0 f90 @|CallSubIcon #fIcon
Ap0 f90 -613726|-1|-16777216 #nodeStyle
Ap0 f91 type ch.soreco.common.functional.AuthorityGroup #txt
Ap0 f91 processCall 'Functional Processes/common/AuthorityGroup:set(ch.soreco.common.bo.AuthorityGroup)' #txt
Ap0 f91 doCall true #txt
Ap0 f91 requestActionDecl '<ch.soreco.common.bo.AuthorityGroup Group> param;
' #txt
Ap0 f91 requestMappingAction 'param.Group=in.authorityGroup;
' #txt
Ap0 f91 responseActionDecl 'ch.soreco.common.functional.AuthorityGroup out;
' #txt
Ap0 f91 responseMappingAction 'out=in;
' #txt
Ap0 f91 @C|.xml '<?xml version="1.0" encoding="UTF-8" standalone="yes"?>
<elementInfo>
    <language>
        <name>setData</name>
        <nameStyle>7
</nameStyle>
    </language>
</elementInfo>
' #txt
Ap0 f91 1702 132 36 24 20 -2 #rect
Ap0 f91 @|CallSubIcon #fIcon
Ap0 f91 -613726|-1|-16777216 #nodeStyle
Ap0 f92 actionDecl 'ch.soreco.common.functional.AuthorityGroup out;
' #txt
Ap0 f92 actionTable 'out=in;
out.authorityGroup.Description="Set write authority to all ST OrderTypes";
out.authorityGroup.GroupName="ST write";
out.authorityGroup.id=14;
' #txt
Ap0 f92 actionCode 'import ch.soreco.orderbook.enums.GroupRole;
import ch.ivyteam.ivy.security.IUser;

out.authorityGroup.GroupRole = GroupRole.Write.name();

List<String> userNames = new List<String>();

//Test User
userNames.add("AIM");
userNames.add("AI");
userNames.add("BST");
userNames.add("PB");


// prod users bzp 28.06.2011
userNames.add("ZALTO");
userNames.add("ZARPA");
userNames.add("ZKEMA"); //Markus Kerz
userNames.add("ZROHO"); //Horst Rossdeutsch
userNames.add("ZCHJO"); 
userNames.add("ZMCLI");

userNames.add("ZJAGI");




List<IUser> users = new List<IUser>();
for (String userName : userNames){
	IUser user = ivy.request.getSecurityContext().findUser(userName);
	if (user != null){
		users.add(user);
	}
}
out.authorityGroup.UserList = users;' #txt
Ap0 f92 type ch.soreco.common.functional.AuthorityGroup #txt
Ap0 f92 @C|.xml '<?xml version="1.0" encoding="UTF-8" standalone="yes"?>
<elementInfo>
    <language>
        <name>setSTwrite</name>
        <nameStyle>10
</nameStyle>
    </language>
</elementInfo>
' #txt
Ap0 f92 1702 68 36 24 20 -2 #rect
Ap0 f92 @|StepIcon #fIcon
Ap0 f92 -613726|-1|-16777216 #nodeStyle
Ap0 f93 expr out #txt
Ap0 f93 1720 92 1720 100 #arcP
Ap0 f94 expr out #txt
Ap0 f94 1720 124 1720 132 #arcP
Ap0 f95 expr out #txt
Ap0 f95 1720 156 1720 188 #arcP
Ap0 f96 expr out #txt
Ap0 f96 1720 212 1720 220 #arcP
Ap0 f98 expr out #txt
Ap0 f98 1720 244 1194 360 #arcP
Ap0 f98 1 1720 360 #addKink
Ap0 f98 1 0.380897321275074 0 0 #arcLabel
Ap0 f99 expr out #txt
Ap0 f99 1338 222 1566 90 #arcP
Ap0 f75 expr out #txt
Ap0 f75 1566 238 1194 354 #arcP
Ap0 f97 actionDecl 'ch.soreco.common.functional.AuthorityGroup out;
' #txt
Ap0 f97 actionTable 'out=in;
' #txt
Ap0 f97 actionCode 'import ch.soreco.orderbook.util.Authority;
Authority.buildInstance();' #txt
Ap0 f97 type ch.soreco.common.functional.AuthorityGroup #txt
Ap0 f97 @C|.xml '<?xml version="1.0" encoding="UTF-8" standalone="yes"?>
<elementInfo>
    <language>
        <name>reset Authority</name>
        <nameStyle>15
</nameStyle>
    </language>
</elementInfo>
' #txt
Ap0 f97 646 100 36 24 20 -2 #rect
Ap0 f97 @|StepIcon #fIcon
Ap0 f100 outLink resetAuthority.ivp #txt
Ap0 f100 type ch.soreco.common.functional.AuthorityGroup #txt
Ap0 f100 inParamDecl '<> param;' #txt
Ap0 f100 actionDecl 'ch.soreco.common.functional.AuthorityGroup out;
' #txt
Ap0 f100 guid 130FB041D4E8E090 #txt
Ap0 f100 requestEnabled true #txt
Ap0 f100 triggerEnabled false #txt
Ap0 f100 callSignature resetAuthority() #txt
Ap0 f100 persist false #txt
Ap0 f100 startName 'Reset Authority' #txt
Ap0 f100 startDescription 'Rebuild AuthorityGroups ' #txt
Ap0 f100 taskData '#
#Thu Jul 21 11:14:18 CEST 2011
TaskTriggered.ROL=Everybody
TaskTriggered.EXTYPE=0
TaskTriggered.EXPRI=2
TaskTriggered.TYPE=0
TaskTriggered.PRI=2
TaskTriggered.EXROL=Everybody
' #txt
Ap0 f100 caseData '#
#Thu Jul 21 11:14:18 CEST 2011
businessCreator.user=
businessMilestone.timestamp=
businessObject.code=
businessObject.docDb.code=
businessObject.folder.id=
businessObject.name=
businessPriority=
businessStart.timestamp=
case.description=
case.name=
correspondent.id=
mainContact.docDb.code=
mainContact.folder.id=
mainContact.id=
mainContact.name=
mainContact.type=
process.code=
process.name=
processCategory.code=
processCategory.name=
subType.code=
subType.name=
type.code=
type.name=
' #txt
Ap0 f100 showInStartList 1 #txt
Ap0 f100 taskAndCaseSetupAction 'import ch.ivyteam.ivy.workflow.TaskUpdateDefinition;
ch.ivyteam.ivy.workflow.TaskUpdateDefinition taskUpdDef = new ch.ivyteam.ivy.workflow.TaskUpdateDefinition();taskUpdDef.setPriority(ch.ivyteam.ivy.workflow.WorkflowPriority.valueOf(2));
taskUpdDef.setExpiryActivator("Everybody");
taskUpdDef.setExpiryPriority(ch.ivyteam.ivy.workflow.WorkflowPriority.valueOf(2));
engine.updateCurrentTask(taskUpdDef);
' #txt
Ap0 f100 @C|.xml '<?xml version="1.0" encoding="UTF-8" standalone="yes"?>
<elementInfo>
    <language>
        <name>resetAuthority.ivp</name>
        <nameStyle>18,5,7
</nameStyle>
    </language>
</elementInfo>
' #txt
Ap0 f100 @C|.responsibility Everybody #txt
Ap0 f100 651 35 26 26 14 0 #rect
Ap0 f100 @|StartRequestIcon #fIcon
Ap0 f101 expr out #txt
Ap0 f101 664 61 664 100 #arcP
Ap0 f102 type ch.soreco.common.functional.AuthorityGroup #txt
Ap0 f102 651 163 26 26 14 0 #rect
Ap0 f102 @|EndIcon #fIcon
Ap0 f103 expr out #txt
Ap0 f103 664 124 664 163 #arcP
>Proto Ap0 .type ch.soreco.common.functional.AuthorityGroup #txt
>Proto Ap0 .processKind CALLABLE_SUB #txt
>Proto Ap0 0 0 32 24 18 0 #rect
>Proto Ap0 @|BIcon #fIcon
Ap0 f35 mainOut f2 tail #connect
Ap0 f2 head f1 mainIn #connect
Ap0 f7 mainOut f16 tail #connect
Ap0 f16 head f6 mainIn #connect
Ap0 f6 mainOut f12 tail #connect
Ap0 f12 head f11 mainIn #connect
Ap0 f0 mainOut f20 tail #connect
Ap0 f20 head f18 mainIn #connect
Ap0 f18 mainOut f3 tail #connect
Ap0 f3 head f35 mainIn #connect
Ap0 f9 mainOut f22 tail #connect
Ap0 f22 head f21 mainIn #connect
Ap0 f21 mainOut f14 tail #connect
Ap0 f14 head f13 mainIn #connect
Ap0 f11 mainOut f8 tail #connect
Ap0 f8 head f23 mainIn #connect
Ap0 f27 mainOut f30 tail #connect
Ap0 f30 head f29 mainIn #connect
Ap0 f23 mainOut f10 tail #connect
Ap0 f10 head f17 mainIn #connect
Ap0 f36 mainOut f38 tail #connect
Ap0 f38 head f24 mainIn #connect
Ap0 f24 mainOut f39 tail #connect
Ap0 f39 head f25 mainIn #connect
Ap0 f25 mainOut f40 tail #connect
Ap0 f40 head f34 mainIn #connect
Ap0 f34 mainOut f41 tail #connect
Ap0 f41 head f37 mainIn #connect
Ap0 f17 mainOut f42 tail #connect
Ap0 f42 head f36 mainIn #connect
Ap0 f44 mainOut f48 tail #connect
Ap0 f48 head f47 mainIn #connect
Ap0 f47 mainOut f46 tail #connect
Ap0 f46 head f45 mainIn #connect
Ap0 f53 mainOut f81 tail #connect
Ap0 f81 head f56 mainIn #connect
Ap0 f56 mainOut f86 tail #connect
Ap0 f86 head f67 mainIn #connect
Ap0 f13 mainOut f62 tail #connect
Ap0 f62 head f27 mainIn #connect
Ap0 f29 mainOut f31 tail #connect
Ap0 f31 head f26 mainIn #connect
Ap0 f28 mainOut f15 tail #connect
Ap0 f15 head f7 mainIn #connect
Ap0 f33 mainOut f32 tail #connect
Ap0 f32 head f28 mainIn #connect
Ap0 f26 mainOut f49 tail #connect
Ap0 f49 head f28 mainIn #connect
Ap0 f4 mainOut f52 tail #connect
Ap0 f52 head f9 mainIn #connect
Ap0 f149 mainOut f43 tail #connect
Ap0 f43 head f5 mainIn #connect
Ap0 f55 mainOut f60 tail #connect
Ap0 f60 head f54 mainIn #connect
Ap0 f54 mainOut f61 tail #connect
Ap0 f61 head f58 mainIn #connect
Ap0 f58 mainOut f63 tail #connect
Ap0 f63 head f59 mainIn #connect
Ap0 f59 mainOut f64 tail #connect
Ap0 f64 head f57 mainIn #connect
Ap0 f37 mainOut f65 tail #connect
Ap0 f65 head f55 mainIn #connect
Ap0 f69 mainOut f71 tail #connect
Ap0 f71 head f51 mainIn #connect
Ap0 f51 mainOut f72 tail #connect
Ap0 f72 head f66 mainIn #connect
Ap0 f66 mainOut f73 tail #connect
Ap0 f73 head f68 mainIn #connect
Ap0 f68 mainOut f74 tail #connect
Ap0 f74 head f70 mainIn #connect
Ap0 f80 mainOut f82 tail #connect
Ap0 f82 head f77 mainIn #connect
Ap0 f77 mainOut f83 tail #connect
Ap0 f83 head f76 mainIn #connect
Ap0 f76 mainOut f84 tail #connect
Ap0 f84 head f79 mainIn #connect
Ap0 f79 mainOut f85 tail #connect
Ap0 f85 head f78 mainIn #connect
Ap0 f70 mainOut f87 tail #connect
Ap0 f87 head f80 mainIn #connect
Ap0 f92 mainOut f93 tail #connect
Ap0 f93 head f90 mainIn #connect
Ap0 f90 mainOut f94 tail #connect
Ap0 f94 head f91 mainIn #connect
Ap0 f91 mainOut f95 tail #connect
Ap0 f95 head f89 mainIn #connect
Ap0 f89 mainOut f96 tail #connect
Ap0 f96 head f88 mainIn #connect
Ap0 f88 mainOut f98 tail #connect
Ap0 f98 head f149 mainIn #connect
Ap0 f57 mainOut f99 tail #connect
Ap0 f99 head f80 mainIn #connect
Ap0 f78 mainOut f75 tail #connect
Ap0 f75 head f149 mainIn #connect
Ap0 f100 mainOut f101 tail #connect
Ap0 f101 head f97 mainIn #connect
Ap0 f97 mainOut f103 tail #connect
Ap0 f103 head f102 mainIn #connect
