[Ivy]
[>Created: Tue Nov 12 10:38:07 CET 2013]
12B5506FCF9BB6AF 3.17 #module
>Proto >Proto Collection #zClass
Or0 Order Big #zClass
Or0 B #cInfo
Or0 #process
Or0 @TextInP .resExport .resExport #zField
Or0 @TextInP .type .type #zField
Or0 @TextInP .processKind .processKind #zField
Or0 @AnnotationInP-0n ai ai #zField
Or0 @TextInP .xml .xml #zField
Or0 @TextInP .responsibility .responsibility #zField
Or0 @StartSub f0 '' #zField
Or0 @EndSub f1 '' #zField
Or0 @StartSub f5 '' #zField
Or0 @EndSub f6 '' #zField
Or0 @GridStep f7 '' #zField
Or0 @Alternative f10 '' #zField
Or0 @CallSub f12 '' #zField
Or0 @Alternative f15 '' #zField
Or0 @GridStep f17 '' #zField
Or0 @PushWFArc f14 '' #zField
Or0 @GridStep f19 '' #zField
Or0 @GridStep f21 '' #zField
Or0 @PushWFArc f22 '' #zField
Or0 @PushWFArc f13 '' #zField
Or0 @GridStep f27 '' #zField
Or0 @Alternative f29 '' #zField
Or0 @GridStep f30 '' #zField
Or0 @PushWFArc f31 '' #zField
Or0 @PushWFArc f33 '' #zField
Or0 @CallSub f38 '' #zField
Or0 @GridStep f39 '' #zField
Or0 @GridStep f40 '' #zField
Or0 @GridStep f41 '' #zField
Or0 @Alternative f42 '' #zField
Or0 @PushWFArc f43 '' #zField
Or0 @PushWFArc f44 '' #zField
Or0 @PushWFArc f45 '' #zField
Or0 @PushWFArc f46 '' #zField
Or0 @PushWFArc f47 '' #zField
Or0 @PushWFArc f49 '' #zField
Or0 @GridStep f24 '' #zField
Or0 @PushWFArc f26 '' #zField
Or0 @GridStep f9 '' #zField
Or0 @PushWFArc f32 '' #zField
Or0 @GridStep f53 '' #zField
Or0 @GridStep f57 '' #zField
Or0 @PushWFArc f56 '' #zField
Or0 @GridStep f59 '' #zField
Or0 @PushWFArc f60 '' #zField
Or0 @PushWFArc f54 '' #zField
Or0 @GridStep f64 '' #zField
Or0 @GridStep f66 '' #zField
Or0 @PushWFArc f67 '' #zField
Or0 @PushWFArc f23 '' #zField
Or0 @GridStep f68 '' #zField
Or0 @PushWFArc f69 '' #zField
Or0 @GridStep f70 '' #zField
Or0 @PushWFArc f71 '' #zField
Or0 @GridStep f72 '' #zField
Or0 @PushWFArc f73 '' #zField
Or0 @GridStep f74 '' #zField
Or0 @PushWFArc f76 '' #zField
Or0 @PushWFArc f18 '' #zField
Or0 @GridStep f78 '' #zField
Or0 @PushWFArc f79 '' #zField
Or0 @PushWFArc f3 '' #zField
Or0 @Alternative f80 '' #zField
Or0 @CallSub f81 '' #zField
Or0 @StartSub f28 '' #zField
Or0 @EndSub f35 '' #zField
Or0 @CallSub f37 '' #zField
Or0 @PushWFArc f48 '' #zField
Or0 @Alternative f51 '' #zField
Or0 @PushWFArc f52 '' #zField
Or0 @PushWFArc f58 '' #zField
Or0 @PushWFArc f61 '' #zField
Or0 @GridStep f63 '' #zField
Or0 @PushWFArc f75 '' #zField
Or0 @PushWFArc f36 '' #zField
Or0 @GridStep f87 '' #zField
Or0 @PushWFArc f89 '' #zField
Or0 @PushWFArc f84 '' #zField
Or0 @Alternative f83 '' #zField
Or0 @PushWFArc f85 '' #zField
Or0 @PushWFArc f50 '' #zField
Or0 @GridStep f91 '' #zField
Or0 @Alternative f92 '' #zField
Or0 @PushWFArc f90 '' #zField
Or0 @PushWFArc f86 '' #zField
Or0 @PushWFArc f65 '' #zField
Or0 @StartSub f2 '' #zField
Or0 @EndSub f4 '' #zField
Or0 @GridStep f94 '' #zField
Or0 @PushWFArc f97 '' #zField
Or0 @PushWFArc f11 '' #zField
Or0 @PushWFArc f88 '' #zField
Or0 @GridStep f62 '' #zField
Or0 @GridStep f16 '' #zField
Or0 @PushWFArc f55 '' #zField
Or0 @GridStep f98 '' #zField
Or0 @PushWFArc f99 '' #zField
Or0 @PushWFArc f20 '' #zField
Or0 @GridStep f100 '' #zField
Or0 @PushWFArc f101 '' #zField
Or0 @PushWFArc f95 '' #zField
Or0 @GridStep f102 '' #zField
Or0 @PushWFArc f103 '' #zField
Or0 @PushWFArc f25 '' #zField
Or0 @GridStep f104 '' #zField
Or0 @PushWFArc f105 '' #zField
Or0 @PushWFArc f93 '' #zField
Or0 @GridStep f106 '' #zField
Or0 @PushWFArc f107 '' #zField
Or0 @PushWFArc f34 '' #zField
Or0 @InfoButton f108 '' #zField
Or0 @AnnotationArc f109 '' #zField
Or0 @PushWFArc f96 '' #zField
Or0 @PushWFArc f111 '' #zField
Or0 @PushWFArc f112 '' #zField
Or0 @CallSub f8 '' #zField
Or0 @PushWFArc f77 '' #zField
Or0 @PushWFArc f82 '' #zField
>Proto Or0 Or0 Order #zField
Or0 f0 inParamDecl '<ch.soreco.orderbook.bo.Order filter> param;' #txt
Or0 f0 inParamTable 'out.filter=param.filter;
out.success=false;
' #txt
Or0 f0 outParamDecl '<ch.soreco.orderbook.bo.Order order,java.lang.Boolean success,java.lang.String error> result;
' #txt
Or0 f0 outParamTable 'result.order=in.order;
result.success=in.success;
result.error=in.error;
' #txt
Or0 f0 actionDecl 'ch.soreco.orderbook.functional.Order out;
' #txt
Or0 f0 callSignature get(ch.soreco.orderbook.bo.Order) #txt
Or0 f0 type ch.soreco.orderbook.functional.Order #txt
Or0 f0 @C|.xml '<?xml version="1.0" encoding="UTF-8" standalone="yes"?>
<elementInfo>
    <language>
        <name>get()</name>
        <nameStyle>5,5,7
</nameStyle>
    </language>
</elementInfo>
' #txt
Or0 f0 83 27 26 26 14 0 #rect
Or0 f0 @|StartSubIcon #fIcon
Or0 f1 type ch.soreco.orderbook.functional.Order #txt
Or0 f1 83 755 26 26 14 0 #rect
Or0 f1 @|EndSubIcon #fIcon
Or0 f5 inParamDecl '<ch.soreco.orderbook.bo.Order order> param;' #txt
Or0 f5 inParamTable 'out.order=param.order;
out.success=false;
' #txt
Or0 f5 outParamDecl '<ch.soreco.orderbook.bo.Order order,java.lang.Boolean success,java.lang.String error> result;
' #txt
Or0 f5 outParamTable 'result.order=in.order;
result.success=in.success;
result.error=in.error;
' #txt
Or0 f5 actionDecl 'ch.soreco.orderbook.functional.Order out;
' #txt
Or0 f5 callSignature set(ch.soreco.orderbook.bo.Order) #txt
Or0 f5 type ch.soreco.orderbook.functional.Order #txt
Or0 f5 @C|.xml '<?xml version="1.0" encoding="UTF-8" standalone="yes"?>
<elementInfo>
    <language>
        <name>set(Order)</name>
        <nameStyle>10,5,7
</nameStyle>
    </language>
</elementInfo>
' #txt
Or0 f5 587 19 26 26 14 0 #rect
Or0 f5 @|StartSubIcon #fIcon
Or0 f6 type ch.soreco.orderbook.functional.Order #txt
Or0 f6 587 1163 26 26 14 0 #rect
Or0 f6 @|EndSubIcon #fIcon
Or0 f7 actionDecl 'ch.soreco.orderbook.functional.Order out;
' #txt
Or0 f7 actionTable 'out=in;
out.i=0;
' #txt
Or0 f7 actionCode 'import ch.soreco.orderbook.enums.OrderType;
import ch.soreco.webbies.common.html.logger.HtmlLog;
import ch.soreco.orderbook.bo.Order;
import ch.soreco.webbies.common.db.EscapeHtml;
EscapeHtml.escapeHtml(in.order);
in.order.lastEdit = new DateTime();
if(in.order.priority == 0){
	in.order.priority = null;
}

if(in.order.dispatchingId== 0){
	in.order.dispatchingId = null;
}

if(in.order.orderQuantityType.trim().equals("")){
	in.order.orderQuantityType=null;
}

if(in.order.nextDueDate!=null
	&&in.order.nextDueDate.getYear()<1901){
	in.order.nextDueDate = null;
	}
//persist
try {
	if(in.order.orderId>0) {
		out.mergedOrder = ivy.persistence.Adressmutation.merge(in.order) as Order;
		}
	else {
		out.mergedOrder = ivy.persistence.Adressmutation.merge(in.order) as Order;
	}
	out.order.orderId = out.mergedOrder.orderId;
	
	try {
			out.order.orderTypeEnum = OrderType.valueOf(out.order.orderType);
			out.mergedOrder.orderTypeEnum = out.order.orderTypeEnum;
	} catch(IllegalArgumentException e){
			out.order.orderTypeEnum = null;	
	}
	
	out.success = true;
	}
catch (Exception e) {
	out.success = false;
	out.error = e.getMessage();
	HtmlLog.error(e.getMessage(),e);
	}
EscapeHtml.unescapeHtml(out.mergedOrder);
EscapeHtml.unescapeHtml(out.order);' #txt
Or0 f7 type ch.soreco.orderbook.functional.Order #txt
Or0 f7 @C|.xml '<?xml version="1.0" encoding="UTF-8" standalone="yes"?>
<elementInfo>
    <language>
        <name>merge Order</name>
        <nameStyle>11,7
</nameStyle>
    </language>
</elementInfo>
' #txt
Or0 f7 582 60 36 24 20 -2 #rect
Or0 f7 @|StepIcon #fIcon
Or0 f10 type ch.soreco.orderbook.functional.Order #txt
Or0 f10 @C|.xml '<?xml version="1.0" encoding="UTF-8" standalone="yes"?>
<elementInfo>
    <language>
        <name>succesful?</name>
        <nameStyle>10
</nameStyle>
    </language>
</elementInfo>
' #txt
Or0 f10 82 210 28 28 15 -26 #rect
Or0 f10 @|AlternativeIcon #fIcon
Or0 f12 type ch.soreco.orderbook.functional.Order #txt
Or0 f12 processCall 'Functional Processes/orderbook/Paper:getContactList(Integer)' #txt
Or0 f12 doCall true #txt
Or0 f12 requestActionDecl '<java.lang.Integer contactId> param;
' #txt
Or0 f12 requestMappingAction 'param.contactId=in.currentContact.contactId;
' #txt
Or0 f12 responseActionDecl 'ch.soreco.orderbook.functional.Order out;
' #txt
Or0 f12 responseMappingAction 'out=in;
out.currentContact.papers=result.papers;
' #txt
Or0 f12 @C|.xml '<?xml version="1.0" encoding="UTF-8" standalone="yes"?>
<elementInfo>
    <language>
        <name>getPapers</name>
        <nameStyle>9
</nameStyle>
    </language>
</elementInfo>
' #txt
Or0 f12 310 444 36 24 20 -2 #rect
Or0 f12 @|CallSubIcon #fIcon
Or0 f15 type ch.soreco.orderbook.functional.Order #txt
Or0 f15 @C|.xml '<?xml version="1.0" encoding="UTF-8" standalone="yes"?>
<elementInfo>
    <language>
        <name>Loop Contacts to get Papers</name>
        <nameStyle>27
</nameStyle>
    </language>
</elementInfo>
' #txt
Or0 f15 202 386 28 28 4 -31 #rect
Or0 f15 @|AlternativeIcon #fIcon
Or0 f17 actionDecl 'ch.soreco.orderbook.functional.Order out;
' #txt
Or0 f17 actionTable 'out=in;
out.i=in.i+1;
' #txt
Or0 f17 type ch.soreco.orderbook.functional.Order #txt
Or0 f17 @C|.xml '<?xml version="1.0" encoding="UTF-8" standalone="yes"?>
<elementInfo>
    <language>
        <name>i++</name>
        <nameStyle>3
</nameStyle>
    </language>
</elementInfo>
' #txt
Or0 f17 310 668 36 24 20 -2 #rect
Or0 f17 @|StepIcon #fIcon
Or0 f14 expr out #txt
Or0 f14 310 680 216 414 #arcP
Or0 f14 1 216 680 #addKink
Or0 f14 1 0.1911960887447702 0 0 #arcLabel
Or0 f19 actionDecl 'ch.soreco.orderbook.functional.Order out;
' #txt
Or0 f19 actionTable 'out=in;
' #txt
Or0 f19 actionCode in.order.contacts.set(in.i,in.currentContact); #txt
Or0 f19 type ch.soreco.orderbook.functional.Order #txt
Or0 f19 @C|.xml '<?xml version="1.0" encoding="UTF-8" standalone="yes"?>
<elementInfo>
    <language>
        <name>add contact with papers</name>
        <nameStyle>23
</nameStyle>
    </language>
</elementInfo>
' #txt
Or0 f19 310 612 36 24 20 -2 #rect
Or0 f19 @|StepIcon #fIcon
Or0 f21 actionDecl 'ch.soreco.orderbook.functional.Order out;
' #txt
Or0 f21 actionTable 'out=in;
out.currentContact=in.order.contacts.get(in.i) as ch.soreco.orderbook.bo.Contact;
' #txt
Or0 f21 type ch.soreco.orderbook.functional.Order #txt
Or0 f21 @C|.xml '<?xml version="1.0" encoding="UTF-8" standalone="yes"?>
<elementInfo>
    <language>
        <name>set current Contact</name>
        <nameStyle>19
</nameStyle>
    </language>
</elementInfo>
' #txt
Or0 f21 310 388 36 24 20 -2 #rect
Or0 f21 @|StepIcon #fIcon
Or0 f22 expr in #txt
Or0 f22 outCond in.i<in.order.contacts.size() #txt
Or0 f22 230 400 310 400 #arcP
Or0 f13 expr out #txt
Or0 f13 328 412 328 444 #arcP
Or0 f27 actionDecl 'ch.soreco.orderbook.functional.Order out;
' #txt
Or0 f27 actionTable 'out=in;
out.i=in.i+1;
' #txt
Or0 f27 type ch.soreco.orderbook.functional.Order #txt
Or0 f27 @C|.xml '<?xml version="1.0" encoding="UTF-8" standalone="yes"?>
<elementInfo>
    <language>
        <name>i++</name>
        <nameStyle>3
</nameStyle>
    </language>
</elementInfo>
' #txt
Or0 f27 774 1068 36 24 20 -2 #rect
Or0 f27 @|StepIcon #fIcon
Or0 f29 type ch.soreco.orderbook.functional.Order #txt
Or0 f29 @C|.xml '<?xml version="1.0" encoding="UTF-8" standalone="yes"?>
<elementInfo>
    <language>
        <name>Loop i Contacts to get Papers</name>
        <nameStyle>29
</nameStyle>
    </language>
</elementInfo>
' #txt
Or0 f29 586 618 28 28 4 -31 #rect
Or0 f29 @|AlternativeIcon #fIcon
Or0 f30 actionDecl 'ch.soreco.orderbook.functional.Order out;
' #txt
Or0 f30 actionTable 'out=in;
' #txt
Or0 f30 actionCode in.order.contacts.set(in.i,in.currentContact); #txt
Or0 f30 type ch.soreco.orderbook.functional.Order #txt
Or0 f30 @C|.xml '<?xml version="1.0" encoding="UTF-8" standalone="yes"?>
<elementInfo>
    <language>
        <name>add contact with papers</name>
        <nameStyle>23
</nameStyle>
    </language>
</elementInfo>
' #txt
Or0 f30 774 1004 36 24 20 -2 #rect
Or0 f30 @|StepIcon #fIcon
Or0 f31 expr out #txt
Or0 f31 774 1080 611 635 #arcP
Or0 f31 1 716 1080 #addKink
Or0 f31 2 716 668 #addKink
Or0 f31 1 0.3050581353809863 0 0 #arcLabel
Or0 f33 expr out #txt
Or0 f33 792 1028 792 1068 #arcP
Or0 f38 type ch.soreco.orderbook.functional.Order #txt
Or0 f38 processCall 'Functional Processes/orderbook/Paper:set(ch.soreco.orderbook.bo.Paper)' #txt
Or0 f38 doCall true #txt
Or0 f38 requestActionDecl '<ch.soreco.orderbook.bo.Paper paper> param;
' #txt
Or0 f38 requestMappingAction 'param.paper=in.currentPaper;
' #txt
Or0 f38 responseActionDecl 'ch.soreco.orderbook.functional.Order out;
' #txt
Or0 f38 responseMappingAction 'out=in;
out.currentPaper=result.paper;
out.success=result.success;
' #txt
Or0 f38 @C|.xml '<?xml version="1.0" encoding="UTF-8" standalone="yes"?>
<elementInfo>
    <language>
        <name>save Paper</name>
        <nameStyle>10
</nameStyle>
    </language>
</elementInfo>
' #txt
Or0 f38 982 972 36 24 20 -2 #rect
Or0 f38 @|CallSubIcon #fIcon
Or0 f39 actionDecl 'ch.soreco.orderbook.functional.Order out;
' #txt
Or0 f39 actionTable 'out=in;
out.j=in.j+1;
' #txt
Or0 f39 type ch.soreco.orderbook.functional.Order #txt
Or0 f39 @C|.xml '<?xml version="1.0" encoding="UTF-8" standalone="yes"?>
<elementInfo>
    <language>
        <name>j++</name>
        <nameStyle>3
</nameStyle>
    </language>
</elementInfo>
' #txt
Or0 f39 982 1084 36 24 20 -2 #rect
Or0 f39 @|StepIcon #fIcon
Or0 f40 actionDecl 'ch.soreco.orderbook.functional.Order out;
' #txt
Or0 f40 actionTable 'out=in;
' #txt
Or0 f40 actionCode in.currentContact.papers.set(in.j,in.currentPaper); #txt
Or0 f40 type ch.soreco.orderbook.functional.Order #txt
Or0 f40 @C|.xml '<?xml version="1.0" encoding="UTF-8" standalone="yes"?>
<elementInfo>
    <language>
        <name>set Paper to current contact</name>
        <nameStyle>28
</nameStyle>
    </language>
</elementInfo>
' #txt
Or0 f40 982 1020 36 24 20 -2 #rect
Or0 f40 @|StepIcon #fIcon
Or0 f41 actionDecl 'ch.soreco.orderbook.functional.Order out;
' #txt
Or0 f41 actionTable 'out=in;
out.currentPaper=in.currentContact.papers.get(in.j) as ch.soreco.orderbook.bo.Paper;
out.currentPaper.contactId=in.currentContact.contactId;
out.currentPaper.paperOrderId=in.currentContact.contactOrderId;
' #txt
Or0 f41 type ch.soreco.orderbook.functional.Order #txt
Or0 f41 @C|.xml '<?xml version="1.0" encoding="UTF-8" standalone="yes"?>
<elementInfo>
    <language>
        <name>set current Paper</name>
        <nameStyle>17
</nameStyle>
    </language>
</elementInfo>
' #txt
Or0 f41 982 916 36 24 20 -2 #rect
Or0 f41 @|StepIcon #fIcon
Or0 f42 type ch.soreco.orderbook.functional.Order #txt
Or0 f42 @C|.xml '<?xml version="1.0" encoding="UTF-8" standalone="yes"?>
<elementInfo>
    <language>
        <name>Loop j Papers to save Paper</name>
        <nameStyle>27
</nameStyle>
    </language>
</elementInfo>
' #txt
Or0 f42 874 914 28 28 4 -31 #rect
Or0 f42 @|AlternativeIcon #fIcon
Or0 f43 expr out #txt
Or0 f43 982 1096 888 942 #arcP
Or0 f43 1 888 1096 #addKink
Or0 f43 1 0.1911960887447702 0 0 #arcLabel
Or0 f44 expr out #txt
Or0 f44 1000 996 1000 1020 #arcP
Or0 f45 expr out #txt
Or0 f45 1000 1044 1000 1084 #arcP
Or0 f46 expr in #txt
Or0 f46 outCond in.j<in.currentContact.papers.size() #txt
Or0 f46 902 928 982 928 #arcP
Or0 f47 expr out #txt
Or0 f47 1000 940 1000 972 #arcP
Or0 f49 expr in #txt
Or0 f49 881 935 805 1004 #arcP
Or0 f49 0 0.5000000000000001 0 0 #arcLabel
Or0 f24 actionDecl 'ch.soreco.orderbook.functional.Order out;
' #txt
Or0 f24 actionTable 'out=in;
out.i=0;
' #txt
Or0 f24 type ch.soreco.orderbook.functional.Order #txt
Or0 f24 @C|.xml '<?xml version="1.0" encoding="UTF-8" standalone="yes"?>
<elementInfo>
    <language>
        <name>reset i</name>
        <nameStyle>7
</nameStyle>
    </language>
</elementInfo>
' #txt
Or0 f24 582 564 36 24 20 -2 #rect
Or0 f24 @|StepIcon #fIcon
Or0 f26 expr out #txt
Or0 f26 600 588 600 618 #arcP
Or0 f9 actionDecl 'ch.soreco.orderbook.functional.Order out;
' #txt
Or0 f9 actionTable 'out=in;
out.currentContact=in.order.contacts.get(in.i) as ch.soreco.orderbook.bo.Contact;
out.currentContact.contactOrderId=in.order.orderId;
out.j=0;
' #txt
Or0 f9 actionCode '
' #txt
Or0 f9 type ch.soreco.orderbook.functional.Order #txt
Or0 f9 @C|.xml '<?xml version="1.0" encoding="UTF-8" standalone="yes"?>
<elementInfo>
    <language>
        <name>set current Contact</name>
        <nameStyle>19
</nameStyle>
    </language>
</elementInfo>
' #txt
Or0 f9 774 620 36 24 25 -30 #rect
Or0 f9 @|StepIcon #fIcon
Or0 f32 expr in #txt
Or0 f32 outCond in.i<in.order.contacts.size() #txt
Or0 f32 614 632 774 632 #arcP
Or0 f53 actionDecl 'ch.soreco.orderbook.functional.Order out;
' #txt
Or0 f53 actionTable 'out=in;
out.j=0;
' #txt
Or0 f53 actionCode 'import ch.soreco.orderbook.bo.AddressCheck;
import ch.soreco.orderbook.bo.ContactAddress;
import ch.soreco.orderbook.bo.SignatureRequest;
import ch.soreco.webbies.common.html.logger.HtmlLog;
import ch.soreco.orderbook.bo.Contact;
import ch.soreco.webbies.common.db.EscapeHtml;
EscapeHtml.escapeHtml(in.currentContact);
in.currentContact.address = EscapeHtml.escapeHtml(in.currentContact.address) as ContactAddress;
in.currentContact.addressCheck = EscapeHtml.escapeHtml(in.currentContact.addressCheck) as AddressCheck;
in.currentContact.addressCheck.addressCheckContactId = in.currentContact.contactId;
//persist
try {
	ivy.log.info("Current Contact is:\n"+in.currentContact.toString());
	out.mergedContact = ivy.persistence.Adressmutation.merge(in.currentContact) as Contact;
	out.mergedContact.address = ivy.persistence.Adressmutation.merge(in.currentContact.address) as ContactAddress;
	out.mergedContact.addressCheck = ivy.persistence.Adressmutation.merge(in.currentContact.addressCheck) as AddressCheck;
	out.currentContact.contactId = out.mergedContact.contactId;
	ivy.log.info("Current Contact is:\n"+in.currentContact.toString()+"\nMerged Contact is:"+in.mergedContact.toString());
	
	out.success = true;
	}
catch (Exception e) {
	out.success = false;
	out.error = e.getMessage();
	HtmlLog.error(e.getMessage(),e);
	}
	' #txt
Or0 f53 type ch.soreco.orderbook.functional.Order #txt
Or0 f53 @C|.xml '<?xml version="1.0" encoding="UTF-8" standalone="yes"?>
<elementInfo>
    <language>
        <name>merge Contact reset j</name>
        <nameStyle>21
</nameStyle>
    </language>
</elementInfo>
' #txt
Or0 f53 774 716 36 24 20 -2 #rect
Or0 f53 @|StepIcon #fIcon
Or0 f57 actionDecl 'ch.soreco.orderbook.functional.Order out;
' #txt
Or0 f57 actionTable 'out=in;
' #txt
Or0 f57 actionCode 'import ch.soreco.orderbook.bo.AddressCheck;
import ch.soreco.orderbook.bo.ContactAddress;
import ch.soreco.webbies.common.db.EscapeHtml;
import ch.soreco.orderbook.bo.Contact;
out.order.contacts = ivy.persistence.Adressmutation
		.createQuery("select c from Contact c where c.contactOrderId = :orderId order by c.contactId desc")
		.setParameter("orderId", in.order.orderId)
		.getResultList();
		
for(Contact contact:out.order.contacts){
	contact.addressCheck = ivy.persistence.Adressmutation.find(AddressCheck.class,contact.contactId) as AddressCheck;
	if(contact.address!=null){
		contact.address = EscapeHtml.unescapeHtml(contact.address) as ContactAddress;
		}
	if(contact.addressCheck!=null){
		contact.addressCheck = EscapeHtml.unescapeHtml(contact.addressCheck) as AddressCheck;
		}
	}
		
' #txt
Or0 f57 type ch.soreco.orderbook.functional.Order #txt
Or0 f57 @C|.xml '<?xml version="1.0" encoding="UTF-8" standalone="yes"?>
<elementInfo>
    <language>
        <name>get Contacts</name>
        <nameStyle>12
</nameStyle>
    </language>
</elementInfo>
' #txt
Or0 f57 198 308 36 24 20 -2 #rect
Or0 f57 @|StepIcon #fIcon
Or0 f56 expr out #txt
Or0 f56 216 332 216 386 #arcP
Or0 f59 actionDecl 'ch.soreco.orderbook.functional.Order out;
' #txt
Or0 f59 actionTable 'out=in;
' #txt
Or0 f59 actionCode 'if(in.currentContact.incomeDate.getYear()==1) {
	in.currentContact.incomeDate = null;
	}' #txt
Or0 f59 type ch.soreco.orderbook.functional.Order #txt
Or0 f59 @C|.xml '<?xml version="1.0" encoding="UTF-8" standalone="yes"?>
<elementInfo>
    <language>
        <name>set incomeDate</name>
        <nameStyle>14
</nameStyle>
    </language>
</elementInfo>
' #txt
Or0 f59 774 668 36 24 20 -2 #rect
Or0 f59 @|StepIcon #fIcon
Or0 f60 expr out #txt
Or0 f60 792 644 792 668 #arcP
Or0 f54 expr out #txt
Or0 f54 792 692 792 716 #arcP
Or0 f64 actionDecl 'ch.soreco.orderbook.functional.Order out;
' #txt
Or0 f64 actionTable 'out=in;
' #txt
Or0 f64 actionCode 'import ch.soreco.orderbook.bo.RecordingLSV;
import ch.soreco.webbies.common.html.logger.HtmlLog;
import ch.soreco.webbies.common.db.EscapeHtml;


for(RecordingLSV lsv: in.order.recording.lsv){
	EscapeHtml.escapeHtml(lsv);	
	try {
		if(in.mergedOrder.recording.recordingId>0) {
			lsv.recording = in.mergedOrder.recording;
			ivy.persistence.Adressmutation.merge(lsv);
			}
		else {
			lsv.recording = in.mergedOrder.recording;
			ivy.persistence.Adressmutation.merge(lsv);
		}
		out.success = true;
		}
	catch (Exception e) {
		out.success = false;
		out.error = e.getMessage();
		HtmlLog.error(e.getMessage(),e);
		}	
	}' #txt
Or0 f64 type ch.soreco.orderbook.functional.Order #txt
Or0 f64 @C|.xml '<?xml version="1.0" encoding="UTF-8" standalone="yes"?>
<elementInfo>
    <language>
        <name>merge Recording LSV</name>
        <nameStyle>19
</nameStyle>
    </language>
</elementInfo>
' #txt
Or0 f64 582 308 36 24 20 -2 #rect
Or0 f64 @|StepIcon #fIcon
Or0 f66 actionDecl 'ch.soreco.orderbook.functional.Order out;
' #txt
Or0 f66 actionTable 'out=in;
' #txt
Or0 f66 actionCode 'import ch.soreco.orderbook.bo.RecordingLSV;
import ch.soreco.orderbook.bo.Recording;

if(in.order.recording.recordingId>0){
	out.order.recording.lsv = ivy.persistence.Adressmutation
		.createQuery("select c from RecordingLSV c join c.recording r where r.recordingId = :recordingId")
		.setParameter("recordingId", in.order.recording.recordingId)
		.getResultList();
	}
' #txt
Or0 f66 type ch.soreco.orderbook.functional.Order #txt
Or0 f66 @C|.xml '<?xml version="1.0" encoding="UTF-8" standalone="yes"?>
<elementInfo>
    <language>
        <name>get Recording LSV''s</name>
        <nameStyle>19
</nameStyle>
    </language>
</elementInfo>
' #txt
Or0 f66 78 460 36 24 20 -2 #rect
Or0 f66 @|StepIcon #fIcon
Or0 f67 expr in #txt
Or0 f67 207 405 114 461 #arcP
Or0 f23 expr in #txt
Or0 f23 96 238 96 460 #arcP
Or0 f68 actionDecl 'ch.soreco.orderbook.functional.Order out;
' #txt
Or0 f68 actionTable 'out=in;
' #txt
Or0 f68 actionCode 'import ch.soreco.orderbook.bo.DomicileOrOwner;

if(in.order.recording.recordingId>0){
	out.order.recording.domicileOrOwner = ivy.persistence.Adressmutation
		.createQuery("select c from DomicileOrOwner c join c.recording r where r.recordingId = :recordingId")
		.setParameter("recordingId", in.order.recording.recordingId)
		.getResultList();
	}

' #txt
Or0 f68 type ch.soreco.orderbook.functional.Order #txt
Or0 f68 @C|.xml '<?xml version="1.0" encoding="UTF-8" standalone="yes"?>
<elementInfo>
    <language>
        <name>get Recording DomicileOrOwners</name>
        <nameStyle>30
</nameStyle>
    </language>
</elementInfo>
' #txt
Or0 f68 78 516 36 24 20 -2 #rect
Or0 f68 @|StepIcon #fIcon
Or0 f69 expr out #txt
Or0 f69 96 484 96 516 #arcP
Or0 f70 actionDecl 'ch.soreco.orderbook.functional.Order out;
' #txt
Or0 f70 actionTable 'out=in;
' #txt
Or0 f70 actionCode 'import ch.soreco.orderbook.bo.DomicileOrOwner;
import ch.soreco.webbies.common.db.EscapeHtml;
import ch.soreco.webbies.common.html.logger.HtmlLog;
for(DomicileOrOwner doo: in.order.recording.domicileOrOwner){
	EscapeHtml.escapeHtml(doo);
	try {
		if(in.mergedOrder.recording.recordingId>0) {
			doo.recording = in.mergedOrder.recording;
			ivy.persistence.Adressmutation.merge(doo);
			}
		else {
			doo.recording = in.mergedOrder.recording;
			ivy.persistence.Adressmutation.merge(doo);
		}
		out.success = true;
		}
	catch (Exception e) {
		out.success = false;
		out.error = e.getMessage();
		HtmlLog.error(e.getMessage(),e);
		}	
	}' #txt
Or0 f70 type ch.soreco.orderbook.functional.Order #txt
Or0 f70 @C|.xml '<?xml version="1.0" encoding="UTF-8" standalone="yes"?>
<elementInfo>
    <language>
        <name>merge Recording Domicile or Owners</name>
        <nameStyle>34
</nameStyle>
    </language>
</elementInfo>
' #txt
Or0 f70 582 356 36 24 20 -2 #rect
Or0 f70 @|StepIcon #fIcon
Or0 f71 expr out #txt
Or0 f71 600 332 600 356 #arcP
Or0 f72 actionDecl 'ch.soreco.orderbook.functional.Order out;
' #txt
Or0 f72 actionTable 'out=in;
' #txt
Or0 f72 actionCode 'import ch.soreco.orderbook.bo.SignatureRequest;
import ch.soreco.webbies.common.db.EscapeHtml;

for(SignatureRequest sign: in.currentContact.signatures){
	EscapeHtml.escapeHtml(sign);
	try {
			sign.contactId = out.mergedContact.contactId;
			sign.SignatureRequestOrderId = in.mergedOrder.orderId;
			sign = ivy.persistence.Adressmutation.merge(sign) as SignatureRequest;
		}
	catch (Exception e) {
		}	
	}' #txt
Or0 f72 type ch.soreco.orderbook.functional.Order #txt
Or0 f72 @C|.xml '<?xml version="1.0" encoding="UTF-8" standalone="yes"?>
<elementInfo>
    <language>
        <name>merge signatures</name>
        <nameStyle>16
</nameStyle>
    </language>
</elementInfo>
' #txt
Or0 f72 774 772 36 24 20 -2 #rect
Or0 f72 @|StepIcon #fIcon
Or0 f73 expr out #txt
Or0 f73 792 740 792 772 #arcP
Or0 f74 actionDecl 'ch.soreco.orderbook.functional.Order out;
' #txt
Or0 f74 actionTable 'out=in;
' #txt
Or0 f74 actionCode 'if(in.currentContact.contactId>0){
	out.currentContact.signatures = ivy.persistence.Adressmutation
		.createQuery("select c from SignatureRequest c where c.contactId = :contactId")
		.setParameter("contactId", in.currentContact.contactId)
		.getResultList();
	}' #txt
Or0 f74 type ch.soreco.orderbook.functional.Order #txt
Or0 f74 @C|.xml '<?xml version="1.0" encoding="UTF-8" standalone="yes"?>
<elementInfo>
    <language>
        <name>get Signatures</name>
        <nameStyle>14
</nameStyle>
    </language>
</elementInfo>
' #txt
Or0 f74 310 500 36 24 20 -2 #rect
Or0 f74 @|StepIcon #fIcon
Or0 f76 expr out #txt
Or0 f76 328 468 328 500 #arcP
Or0 f18 expr out #txt
Or0 f18 328 636 328 668 #arcP
Or0 f78 actionDecl 'ch.soreco.orderbook.functional.Order out;
' #txt
Or0 f78 actionTable 'out=in;
' #txt
Or0 f78 actionCode 'import ch.soreco.orderbook.enums.OrderType;
import ch.soreco.webbies.common.db.EscapeHtml;
import ch.soreco.orderbook.bo.Order;
import ch.soreco.webbies.common.db.EntityFilter;

List found = EntityFilter.getEntityResultList(in.filter,ivy.persistence.Adressmutation);

if(found != null) {
	//try because sometimes it gets a OutOfBounds Exception
	//found.size()<0 doesn''t work by dispatched (new) Orders
	try {
		out.order = found.get(0) as Order;
		out.order = EscapeHtml.unescapeHtml(out.order) as Order;
		if(!out.order.orderType.equals("")){
			try {
				out.order.orderTypeEnum = OrderType.valueOf(out.order.orderType);
				} catch(IllegalArgumentException e){
				out.order.orderTypeEnum = null;	
				}
			
			}
		out.success = true;
	} catch (Exception e) {
		out.success = false;
	}
}
else {
	out.success = false;
}' #txt
Or0 f78 type ch.soreco.orderbook.functional.Order #txt
Or0 f78 @C|.xml '<?xml version="1.0" encoding="UTF-8" standalone="yes"?>
<elementInfo>
    <language>
        <name>get Order</name>
        <nameStyle>9,7
</nameStyle>
    </language>
</elementInfo>
' #txt
Or0 f78 78 132 36 24 20 -2 #rect
Or0 f78 @|StepIcon #fIcon
Or0 f79 expr out #txt
Or0 f79 96 53 96 132 #arcP
Or0 f3 expr out #txt
Or0 f3 96 156 96 210 #arcP
Or0 f80 type ch.soreco.orderbook.functional.Order #txt
Or0 f80 @C|.xml '<?xml version="1.0" encoding="UTF-8" standalone="yes"?>
<elementInfo>
    <language>
        <name>has Scannings?</name>
        <nameStyle>14
</nameStyle>
    </language>
</elementInfo>
' #txt
Or0 f80 586 146 28 28 14 0 #rect
Or0 f80 @|AlternativeIcon #fIcon
Or0 f81 type ch.soreco.orderbook.functional.Order #txt
Or0 f81 processCall 'Functional Processes/scanning/Scanning:setList(Integer,List<ch.soreco.orderbook.bo.Scanning>)' #txt
Or0 f81 doCall true #txt
Or0 f81 requestActionDecl '<java.lang.Integer orderId,List<ch.soreco.orderbook.bo.Scanning> scannings> param;
' #txt
Or0 f81 requestMappingAction 'param.orderId=in.mergedOrder.orderId;
param.scannings=in.order.scannings;
' #txt
Or0 f81 responseActionDecl 'ch.soreco.orderbook.functional.Order out;
' #txt
Or0 f81 responseMappingAction 'out=in;
out.error=result.error;
out.mergedOrder.orderState=IF(result.MainScanning.orderType.length()>0,
	IF(result.MainScanning.orderType.equalsIgnoreCase(ch.soreco.orderbook.enums.OrderType.Default.toString()),
		ch.soreco.orderbook.enums.OrderState.InDispatchingNew.toString(),
		IF(in.mergedOrder.orderState.length()>0,in.mergedOrder.orderState,ch.soreco.orderbook.enums.OrderState.Dispatched.toString())),
	ch.soreco.orderbook.enums.OrderState.Default.toString());
out.mergedOrder.orderType=result.MainScanning.orderType;
out.mergedOrder.scanFileId=result.MainScanning.scanFileId;
out.mergedOrder.scanId=result.MainScanning.scanId;
out.mergedOrder.scanMonoFileId=result.MainScanning.scanMonoFileId;
out.mergedOrder.scanning=result.MainScanning;
out.mergedOrder.scanningId=result.MainScanning.scanningId;
out.order.scanFileId=result.MainScanning.scanFileId;
out.order.scanId=result.MainScanning.scanId;
out.order.scanMonoFileId=result.MainScanning.scanMonoFileId;
out.order.scanning=result.MainScanning;
out.order.scanningId=result.MainScanning.scanningId;
out.success=result.success;
' #txt
Or0 f81 @C|.xml '<?xml version="1.0" encoding="UTF-8" standalone="yes"?>
<elementInfo>
    <language>
        <name>Save Scannings</name>
        <nameStyle>14
</nameStyle>
        <desc>05.08.2011 PB / ChangeRequest 57:
replaced:
IF(result.MainScanning.orderType.length()&gt;0,
	IF(result.MainScanning.orderType.equalsIgnoreCase(ch.soreco.orderbook.enums.OrderType.Default.toString()),
		ch.soreco.orderbook.enums.OrderState.InDispatchingNew.toString(),
		ch.soreco.orderbook.enums.OrderState.Dispatched.toString()),
	ch.soreco.orderbook.enums.OrderState.Default.toString())


</desc>
    </language>
</elementInfo>
' #txt
Or0 f81 710 188 36 24 20 -2 #rect
Or0 f81 @|CallSubIcon #fIcon
Or0 f28 inParamDecl '<ch.soreco.orderbook.bo.Order Order> param;' #txt
Or0 f28 inParamTable 'out.filter=param.Order;
' #txt
Or0 f28 outParamDecl '<java.lang.Boolean success,java.lang.String error,java.lang.String OrderState> result;
' #txt
Or0 f28 outParamTable 'result.success=in.success;
result.error=in.error;
result.OrderState=in.orderState.toString();
' #txt
Or0 f28 actionDecl 'ch.soreco.orderbook.functional.Order out;
' #txt
Or0 f28 callSignature getOrderState(ch.soreco.orderbook.bo.Order) #txt
Or0 f28 type ch.soreco.orderbook.functional.Order #txt
Or0 f28 @C|.xml '<?xml version="1.0" encoding="UTF-8" standalone="yes"?>
<elementInfo>
    <language>
        <name>getOrderState(Order)</name>
        <nameStyle>20,5,7
</nameStyle>
    </language>
</elementInfo>
' #txt
Or0 f28 299 27 26 26 14 0 #rect
Or0 f28 @|StartSubIcon #fIcon
Or0 f35 type ch.soreco.orderbook.functional.Order #txt
Or0 f35 299 139 26 26 14 0 #rect
Or0 f35 @|EndSubIcon #fIcon
Or0 f37 type ch.soreco.orderbook.functional.Order #txt
Or0 f37 processCall 'Functional Processes/scanning/Scanning:getScanningList(Boolean,Integer)' #txt
Or0 f37 doCall true #txt
Or0 f37 requestActionDecl '<java.lang.Boolean loadFiles,java.lang.Integer OrderId> param;
' #txt
Or0 f37 requestMappingAction 'param.loadFiles=false;
param.OrderId=in.order.orderId;
' #txt
Or0 f37 responseActionDecl 'ch.soreco.orderbook.functional.Order out;
' #txt
Or0 f37 responseMappingAction 'out=in;
out.error=result.error;
out.order.scannings=result.Scannings;
out.success=result.success;
' #txt
Or0 f37 @C|.xml '<?xml version="1.0" encoding="UTF-8" standalone="yes"?>
<elementInfo>
    <language>
        <name>get Scannings</name>
        <nameStyle>13
</nameStyle>
    </language>
</elementInfo>
' #txt
Or0 f37 158 212 36 24 20 -2 #rect
Or0 f37 @|CallSubIcon #fIcon
Or0 f48 expr in #txt
Or0 f48 outCond in.success #txt
Or0 f48 6 #arcStyle
Or0 f48 110 224 158 224 #arcP
Or0 f51 type ch.soreco.orderbook.functional.Order #txt
Or0 f51 @C|.xml '<?xml version="1.0" encoding="UTF-8" standalone="yes"?>
<elementInfo>
    <language>
        <name>succeed?</name>
        <nameStyle>8
</nameStyle>
    </language>
</elementInfo>
' #txt
Or0 f51 162 250 28 28 14 0 #rect
Or0 f51 @|AlternativeIcon #fIcon
Or0 f52 expr out #txt
Or0 f52 176 236 176 250 #arcP
Or0 f58 expr in #txt
Or0 f58 outCond in.success #txt
Or0 f58 182 272 207 308 #arcP
Or0 f61 expr in #txt
Or0 f61 190 264 109 768 #arcP
Or0 f61 1 456 264 #addKink
Or0 f61 2 456 768 #addKink
Or0 f61 1 0.4713640716799163 0 0 #arcLabel
Or0 f63 actionDecl 'ch.soreco.orderbook.functional.Order out;
' #txt
Or0 f63 actionTable 'out=in;
' #txt
Or0 f63 actionCode 'import ch.soreco.orderbook.enums.OrderState;
import ch.soreco.orderbook.bo.Order;
import ch.soreco.webbies.common.db.EntityFilter;

Order ord;
List found = EntityFilter.getEntityResultList(in.filter,ivy.persistence.Adressmutation);

if(found!=null) {
	ord = found.get(0) as Order;
	in.orderState = OrderState.valueOf(ord.orderState);
	out.success = true;
	}
else {
	out.success = false;
}' #txt
Or0 f63 type ch.soreco.orderbook.functional.Order #txt
Or0 f63 @C|.xml '<?xml version="1.0" encoding="UTF-8" standalone="yes"?>
<elementInfo>
    <language>
        <name>getOrderState</name>
        <nameStyle>13
</nameStyle>
    </language>
</elementInfo>
' #txt
Or0 f63 294 84 36 24 20 -2 #rect
Or0 f63 @|StepIcon #fIcon
Or0 f75 expr out #txt
Or0 f75 312 53 312 84 #arcP
Or0 f36 expr out #txt
Or0 f36 312 108 312 139 #arcP
Or0 f87 actionDecl 'ch.soreco.orderbook.functional.Order out;
' #txt
Or0 f87 actionTable 'out=in;
out.i=0;
' #txt
Or0 f87 actionCode 'import ch.soreco.webbies.common.html.logger.HtmlLog;
import ch.soreco.orderbook.bo.Order;
//persist
try {
		out.mergedOrder = ivy.persistence.Adressmutation.merge(in.mergedOrder) as Order;
}
catch (Exception e) {
	out.success = false;
	out.error = e.getMessage();
	HtmlLog.error(e.getMessage(),e);
}' #txt
Or0 f87 type ch.soreco.orderbook.functional.Order #txt
Or0 f87 @C|.xml '<?xml version="1.0" encoding="UTF-8" standalone="yes"?>
<elementInfo>
    <language>
        <name>set main scanning</name>
        <nameStyle>17
</nameStyle>
    </language>
</elementInfo>
' #txt
Or0 f87 710 276 36 24 20 -2 #rect
Or0 f87 @|StepIcon #fIcon
Or0 f89 expr in #txt
Or0 f89 600 174 600 308 #arcP
Or0 f84 expr out #txt
Or0 f84 600 45 600 60 #arcP
Or0 f83 type ch.soreco.orderbook.functional.Order #txt
Or0 f83 @C|.xml '<?xml version="1.0" encoding="UTF-8" standalone="yes"?>
<elementInfo>
    <language>
        <name>succeed</name>
        <nameStyle>7
</nameStyle>
    </language>
</elementInfo>
' #txt
Or0 f83 586 98 28 28 14 0 #rect
Or0 f83 @|AlternativeIcon #fIcon
Or0 f85 expr out #txt
Or0 f85 600 84 600 98 #arcP
Or0 f85 0 0.5149807609785585 0 0 #arcLabel
Or0 f50 expr in #txt
Or0 f50 outCond in.success #txt
Or0 f50 600 126 600 146 #arcP
Or0 f91 actionDecl 'ch.soreco.orderbook.functional.Order out;
' #txt
Or0 f91 actionTable 'out=in;
' #txt
Or0 f91 actionCode 'import ch.soreco.webbies.common.html.logger.HtmlLog;
import ch.soreco.orderbook.bo.Order;
//persist
try {
	if(in.order.orderId>0) {
		out.mergedOrder = ivy.persistence.Adressmutation.remove(in.mergedOrder) as Order;
	}
}
catch (Exception e) {
	out.success = false;
	out.error = e.getMessage();
}' #txt
Or0 f91 type ch.soreco.orderbook.functional.Order #txt
Or0 f91 @C|.xml '<?xml version="1.0" encoding="UTF-8" standalone="yes"?>
<elementInfo>
    <language>
        <name>delete Order</name>
        <nameStyle>12
</nameStyle>
    </language>
</elementInfo>
' #txt
Or0 f91 886 236 36 24 20 -2 #rect
Or0 f91 @|StepIcon #fIcon
Or0 f92 type ch.soreco.orderbook.functional.Order #txt
Or0 f92 @C|.xml '<?xml version="1.0" encoding="UTF-8" standalone="yes"?>
<elementInfo>
    <language>
        <name>succeed</name>
        <nameStyle>7
</nameStyle>
    </language>
</elementInfo>
' #txt
Or0 f92 714 234 28 28 14 0 #rect
Or0 f92 @|AlternativeIcon #fIcon
Or0 f90 expr in #txt
Or0 f90 742 248 886 248 #arcP
Or0 f90 0 0.6973034127794611 0 0 #arcLabel
Or0 f86 expr out #txt
Or0 f86 728 212 728 234 #arcP
Or0 f86 0 0.9398760554156844 0 0 #arcLabel
Or0 f65 expr in #txt
Or0 f65 outCond in.success #txt
Or0 f65 728 262 728 276 #arcP
Or0 f65 0 0.7131271404257171 0 0 #arcLabel
Or0 f2 inParamDecl '<ch.soreco.orderbook.bo.Order order> param;' #txt
Or0 f2 inParamTable 'out.order=param.order;
' #txt
Or0 f2 outParamDecl '<java.lang.Boolean success,java.lang.String error,ch.soreco.orderbook.bo.Order order> result;
' #txt
Or0 f2 outParamTable 'result.success=in.success;
result.error=in.error;
result.order=in.mergedOrder;
' #txt
Or0 f2 actionDecl 'ch.soreco.orderbook.functional.Order out;
' #txt
Or0 f2 callSignature setPlainOrder(ch.soreco.orderbook.bo.Order) #txt
Or0 f2 type ch.soreco.orderbook.functional.Order #txt
Or0 f2 @C|.xml '<?xml version="1.0" encoding="UTF-8" standalone="yes"?>
<elementInfo>
    <language>
        <name>setPlainOrder(Order)</name>
        <nameStyle>20,5,7
</nameStyle>
    </language>
</elementInfo>
' #txt
Or0 f2 443 27 26 26 14 0 #rect
Or0 f2 @|StartSubIcon #fIcon
Or0 f4 type ch.soreco.orderbook.functional.Order #txt
Or0 f4 443 139 26 26 14 0 #rect
Or0 f4 @|EndSubIcon #fIcon
Or0 f94 actionDecl 'ch.soreco.orderbook.functional.Order out;
' #txt
Or0 f94 actionTable 'out=in;
out.i=0;
' #txt
Or0 f94 actionCode 'import ch.soreco.webbies.common.html.logger.HtmlLog;
import ch.soreco.orderbook.bo.Order;
in.order.lastEdit = new DateTime();
in.order.priority = in.order.priority == 0 ? null : in.order.priority;
if(in.order.orderQuantityType.trim().equals("")){
	in.order.orderQuantityType=null;
	}
//persist
try {
	if(in.order.orderId>0) {
		out.mergedOrder = ivy.persistence.Adressmutation.merge(in.order) as Order;
		}
	else {
		out.mergedOrder = ivy.persistence.Adressmutation.merge(in.order) as Order;
	}
	out.order.orderId = out.mergedOrder.orderId;
	out.success = true;
	}
catch (Exception e) {
	out.success = false;
	out.error = e.getMessage();
	HtmlLog.error(e.getMessage(),e);
	}' #txt
Or0 f94 type ch.soreco.orderbook.functional.Order #txt
Or0 f94 @C|.xml '<?xml version="1.0" encoding="UTF-8" standalone="yes"?>
<elementInfo>
    <language>
        <name>merge Order</name>
        <nameStyle>11
</nameStyle>
    </language>
</elementInfo>
' #txt
Or0 f94 438 84 36 24 20 -2 #rect
Or0 f94 @|StepIcon #fIcon
Or0 f97 expr out #txt
Or0 f97 456 53 456 84 #arcP
Or0 f11 expr out #txt
Or0 f11 456 108 456 139 #arcP
Or0 f88 expr out #txt
Or0 f88 728 300 618 320 #arcP
Or0 f88 1 728 320 #addKink
Or0 f88 1 0.36820302940229166 0 0 #arcLabel
Or0 f62 actionDecl 'ch.soreco.orderbook.functional.Order out;
' #txt
Or0 f62 actionTable 'out=in;
' #txt
Or0 f62 actionCode 'import ch.soreco.orderbook.bo.CorrespondenceContainer;
import ch.soreco.webbies.common.db.EscapeHtml;
import ch.soreco.webbies.common.html.logger.HtmlLog;


for(CorrespondenceContainer cont: in.order.recording.correspondence.correspondenceContainer){
	cont.correspondence = in.order.recording.correspondence;
	EscapeHtml.escapeHtml(cont);
	}
try {
	ivy.persistence.Adressmutation.merge(in.order.recording.correspondence);
	out.success = true;
	}
catch (Exception e) {
	out.success = false;
	out.error = e.getMessage();
	HtmlLog.error(e.getMessage(),e);
	}	' #txt
Or0 f62 type ch.soreco.orderbook.functional.Order #txt
Or0 f62 @C|.xml '<?xml version="1.0" encoding="UTF-8" standalone="yes"?>
<elementInfo>
    <language>
        <name>merge Correspondence containers</name>
        <nameStyle>31
</nameStyle>
    </language>
</elementInfo>
' #txt
Or0 f62 582 460 36 24 20 -2 #rect
Or0 f62 @|StepIcon #fIcon
Or0 f16 actionDecl 'ch.soreco.orderbook.functional.Order out;
' #txt
Or0 f16 actionTable 'out=in;
' #txt
Or0 f16 actionCode 'import ch.soreco.orderbook.bo.RecordingMeta;
import ch.soreco.webbies.common.db.EscapeHtml;

out.order.recording.metaTypes.clear();
List metaTypes = new List();

if(in.order.recording.recordingId>0){
	//out.order.recording.metaTypes = ivy.persistence.Adressmutation
	metaTypes = ivy.persistence.Adressmutation
		.createQuery("select c from RecordingMeta c join c.recording r where r.recordingId = :recordingId")
		.setParameter("recordingId", in.order.recording.recordingId)
		.getResultList();
		
	for(RecordingMeta meta: metaTypes){
			EscapeHtml.unescapeHtml(meta);
			out.order.recording.metaTypes.add(meta);
	}
}

' #txt
Or0 f16 type ch.soreco.orderbook.functional.Order #txt
Or0 f16 @C|.xml '<?xml version="1.0" encoding="UTF-8" standalone="yes"?>
<elementInfo>
    <language>
        <name>get Recording Metas</name>
        <nameStyle>19
</nameStyle>
    </language>
</elementInfo>
' #txt
Or0 f16 78 564 36 24 20 -2 #rect
Or0 f16 @|StepIcon #fIcon
Or0 f55 expr out #txt
Or0 f55 96 540 96 564 #arcP
Or0 f98 actionDecl 'ch.soreco.orderbook.functional.Order out;
' #txt
Or0 f98 actionTable 'out=in;
' #txt
Or0 f98 actionCode 'if(in.currentContact.contactId>0){
	out.currentContact.letters = ivy.persistence.Adressmutation
		.createQuery("select c from Letter c where c.contactId = :contactId")
		.setParameter("contactId", in.currentContact.contactId)
		.getResultList();
	}' #txt
Or0 f98 type ch.soreco.orderbook.functional.Order #txt
Or0 f98 @C|.xml '<?xml version="1.0" encoding="UTF-8" standalone="yes"?>
<elementInfo>
    <language>
        <name>get Letters</name>
        <nameStyle>11
</nameStyle>
    </language>
</elementInfo>
' #txt
Or0 f98 310 556 36 24 20 -2 #rect
Or0 f98 @|StepIcon #fIcon
Or0 f99 expr out #txt
Or0 f99 328 524 328 556 #arcP
Or0 f20 expr out #txt
Or0 f20 328 580 328 612 #arcP
Or0 f100 actionDecl 'ch.soreco.orderbook.functional.Order out;
' #txt
Or0 f100 actionTable 'out=in;
' #txt
Or0 f100 actionCode 'if(in.order.recording.recordingId>0){
	out.order.pendencyTickets = ivy.persistence.Adressmutation
		.createQuery("select c from PendencyTicket c join c.order r where r.orderId = :orderId")
		.setParameter("orderId", in.order.orderId)
		.getResultList();
	}

' #txt
Or0 f100 type ch.soreco.orderbook.functional.Order #txt
Or0 f100 @C|.xml '<?xml version="1.0" encoding="UTF-8" standalone="yes"?>
<elementInfo>
    <language>
        <name>get Pendency Tickets</name>
        <nameStyle>20
</nameStyle>
    </language>
</elementInfo>
' #txt
Or0 f100 78 628 36 24 20 -2 #rect
Or0 f100 @|StepIcon #fIcon
Or0 f101 expr out #txt
Or0 f101 96 588 96 628 #arcP
Or0 f95 expr out #txt
Or0 f95 96 652 96 755 #arcP
Or0 f102 actionDecl 'ch.soreco.orderbook.functional.Order out;
' #txt
Or0 f102 actionTable 'out=in;
' #txt
Or0 f102 actionCode 'import ch.soreco.orderbook.bo.PendencyTicket;
import ch.soreco.webbies.common.db.EscapeHtml;
import ch.soreco.webbies.common.html.logger.HtmlLog;


for(PendencyTicket ticket: in.order.pendencyTickets){
	ticket.order = in.mergedOrder;
	if(ticket.dueDate!=null&&ticket.dueDate.getYear()<1901){
		ticket.dueDate = null;
		}
	if(ticket.remindAt!=null&&ticket.remindAt.getYear()<1901){
		ticket.remindAt = null;
		}

	EscapeHtml.escapeHtml(ticket);
	try {
		ticket = ivy.persistence.Adressmutation.merge(ticket) as PendencyTicket;
		out.success = true;
		}
	catch (Exception e) {
		out.success = false;
		out.error = e.getMessage();
		HtmlLog.error(e.getMessage(),e);
		}		
	}
' #txt
Or0 f102 type ch.soreco.orderbook.functional.Order #txt
Or0 f102 @C|.xml '<?xml version="1.0" encoding="UTF-8" standalone="yes"?>
<elementInfo>
    <language>
        <name>merge Pendency Tickets</name>
        <nameStyle>22
</nameStyle>
    </language>
</elementInfo>
' #txt
Or0 f102 582 516 36 24 20 -2 #rect
Or0 f102 @|StepIcon #fIcon
Or0 f103 expr out #txt
Or0 f103 600 484 600 516 #arcP
Or0 f25 expr out #txt
Or0 f25 600 540 600 564 #arcP
Or0 f104 actionDecl 'ch.soreco.orderbook.functional.Order out;
' #txt
Or0 f104 actionTable 'out=in;
' #txt
Or0 f104 actionCode 'import ch.soreco.orderbook.bo.RecordingMeta;
import ch.soreco.webbies.common.db.EscapeHtml;
import ch.soreco.webbies.common.html.logger.HtmlLog;
for(RecordingMeta meta: in.order.recording.metaTypes){
	EscapeHtml.escapeHtml(meta);
	try {
			meta.recording = in.mergedOrder.recording;
			ivy.persistence.Adressmutation.merge(meta);
		}
	catch (Exception e) {
		out.success = false;
		out.error = e.getMessage();
		HtmlLog.error(e.getMessage(),e);
		}	
	}' #txt
Or0 f104 type ch.soreco.orderbook.functional.Order #txt
Or0 f104 @C|.xml '<?xml version="1.0" encoding="UTF-8" standalone="yes"?>
<elementInfo>
    <language>
        <name>merge Recording metaTypes</name>
        <nameStyle>25
</nameStyle>
    </language>
</elementInfo>
' #txt
Or0 f104 582 396 36 24 20 -2 #rect
Or0 f104 @|StepIcon #fIcon
Or0 f105 expr out #txt
Or0 f105 600 380 600 396 #arcP
Or0 f93 expr out #txt
Or0 f93 600 420 600 460 #arcP
Or0 f106 actionDecl 'ch.soreco.orderbook.functional.Order out;
' #txt
Or0 f106 actionTable 'out=in;
' #txt
Or0 f106 actionCode 'import ch.soreco.orderbook.bo.Letter;
import ch.soreco.webbies.common.db.EscapeHtml;

List insertedLetters = new List();

for(Letter letter: in.currentContact.letters){
	EscapeHtml.escapeHtml(letter);
	try {
			letter.contactId = out.mergedContact.contactId;
			letter = ivy.persistence.Adressmutation.merge(letter) as Letter;
			insertedLetters.add(letter);
		}
	catch (Exception e) {
		}	
	}
	
out.currentContact.letters.clear();
out.currentContact.letters.addAll(insertedLetters);' #txt
Or0 f106 type ch.soreco.orderbook.functional.Order #txt
Or0 f106 @C|.xml '<?xml version="1.0" encoding="UTF-8" standalone="yes"?>
<elementInfo>
    <language>
        <name>merge letters</name>
        <nameStyle>13,7
</nameStyle>
    </language>
</elementInfo>
' #txt
Or0 f106 774 836 36 24 20 -2 #rect
Or0 f106 @|StepIcon #fIcon
Or0 f107 expr out #txt
Or0 f107 792 796 792 836 #arcP
Or0 f34 expr out #txt
Or0 f34 806 860 880 922 #arcP
Or0 f108 @C|.xml '<?xml version="1.0" encoding="UTF-8" standalone="yes"?>
<elementInfo>
    <language>
        <name>AIM 08.06.2011:
IF OrderType Default
    --&gt; OrderState InDispatchingNew
        --&gt; Manual Dispatching
PB 05.08.2011:
choose orderState by field stateAfterCreate 
in OrderMatching</name>
        <nameStyle>180
</nameStyle>
    </language>
</elementInfo>
' #txt
Or0 f108 786 24 12 17 10 0 #rect
Or0 f108 @|IBIcon #fIcon
Or0 f108 -1|-1|-16777216 #nodeStyle
Or0 f109 786 31 732 188 #arcP
Or0 f96 expr in #txt
Or0 f96 600 646 600 1163 #arcP
Or0 f96 0 0.5000000000000001 0 0 #arcLabel
Or0 f111 expr out #txt
Or0 f111 922 248 613 1176 #arcP
Or0 f111 1 1184 248 #addKink
Or0 f111 2 1184 1176 #addKink
Or0 f111 1 0.8300064770970695 0 0 #arcLabel
Or0 f112 expr in #txt
Or0 f112 586 112 587 1176 #arcP
Or0 f112 1 560 112 #addKink
Or0 f112 2 560 1176 #addKink
Or0 f112 1 0.5152430909137496 0 0 #arcLabel
Or0 f8 type ch.soreco.orderbook.functional.Order #txt
Or0 f8 processCall 'Functional Processes/scanning/Scanning:getMainScanning(List<ch.soreco.orderbook.bo.Scanning>)' #txt
Or0 f8 doCall true #txt
Or0 f8 requestActionDecl '<List<ch.soreco.orderbook.bo.Scanning> scannings> param;
' #txt
Or0 f8 requestMappingAction 'param.scannings=in.order.scannings;
' #txt
Or0 f8 responseActionDecl 'ch.soreco.orderbook.functional.Order out;
' #txt
Or0 f8 responseMappingAction 'out=in;
out.mergedOrder.orderState=result.mainScanning.orderMatching.stateAfterCreate.length() > 0 ? result.mainScanning.orderMatching.stateAfterCreate : "";
out.mergedOrder.priority=result.mainScanning.orderMatching.orderPriority > 0 ? result.mainScanning.orderMatching.orderPriority : null;
' #txt
Or0 f8 @C|.xml '<?xml version="1.0" encoding="UTF-8" standalone="yes"?>
<elementInfo>
    <language>
        <name>getMainScanning(List&lt;Scanning&gt;)</name>
        <nameStyle>31,5,7
</nameStyle>
    </language>
</elementInfo>
' #txt
Or0 f8 710 148 36 24 20 -2 #rect
Or0 f8 @|CallSubIcon #fIcon
Or0 f77 expr in #txt
Or0 f77 outCond 'in.order.scannings.size()>0 && !(in.order.scanningId>0)' #txt
Or0 f77 614 160 710 160 #arcP
Or0 f77 0 0.7294128066478827 0 0 #arcLabel
Or0 f82 expr out #txt
Or0 f82 728 172 728 188 #arcP
>Proto Or0 .type ch.soreco.orderbook.functional.Order #txt
>Proto Or0 .processKind CALLABLE_SUB #txt
>Proto Or0 0 0 32 24 18 0 #rect
>Proto Or0 @|BIcon #fIcon
Or0 f17 mainOut f14 tail #connect
Or0 f14 head f15 in #connect
Or0 f15 out f22 tail #connect
Or0 f22 head f21 mainIn #connect
Or0 f21 mainOut f13 tail #connect
Or0 f13 head f12 mainIn #connect
Or0 f27 mainOut f31 tail #connect
Or0 f31 head f29 in #connect
Or0 f30 mainOut f33 tail #connect
Or0 f33 head f27 mainIn #connect
Or0 f39 mainOut f43 tail #connect
Or0 f43 head f42 in #connect
Or0 f38 mainOut f44 tail #connect
Or0 f44 head f40 mainIn #connect
Or0 f40 mainOut f45 tail #connect
Or0 f45 head f39 mainIn #connect
Or0 f42 out f46 tail #connect
Or0 f46 head f41 mainIn #connect
Or0 f41 mainOut f47 tail #connect
Or0 f47 head f38 mainIn #connect
Or0 f42 out f49 tail #connect
Or0 f49 head f30 mainIn #connect
Or0 f24 mainOut f26 tail #connect
Or0 f26 head f29 in #connect
Or0 f29 out f32 tail #connect
Or0 f32 head f9 mainIn #connect
Or0 f57 mainOut f56 tail #connect
Or0 f56 head f15 in #connect
Or0 f9 mainOut f60 tail #connect
Or0 f60 head f59 mainIn #connect
Or0 f59 mainOut f54 tail #connect
Or0 f54 head f53 mainIn #connect
Or0 f15 out f67 tail #connect
Or0 f67 head f66 mainIn #connect
Or0 f23 head f66 mainIn #connect
Or0 f66 mainOut f69 tail #connect
Or0 f69 head f68 mainIn #connect
Or0 f64 mainOut f71 tail #connect
Or0 f71 head f70 mainIn #connect
Or0 f53 mainOut f73 tail #connect
Or0 f73 head f72 mainIn #connect
Or0 f12 mainOut f76 tail #connect
Or0 f76 head f74 mainIn #connect
Or0 f19 mainOut f18 tail #connect
Or0 f18 head f17 mainIn #connect
Or0 f0 mainOut f79 tail #connect
Or0 f79 head f78 mainIn #connect
Or0 f78 mainOut f3 tail #connect
Or0 f3 head f10 in #connect
Or0 f10 out f48 tail #connect
Or0 f48 head f37 mainIn #connect
Or0 f10 out f23 tail #connect
Or0 f37 mainOut f52 tail #connect
Or0 f52 head f51 in #connect
Or0 f51 out f58 tail #connect
Or0 f58 head f57 mainIn #connect
Or0 f51 out f61 tail #connect
Or0 f61 head f1 mainIn #connect
Or0 f28 mainOut f75 tail #connect
Or0 f75 head f63 mainIn #connect
Or0 f63 mainOut f36 tail #connect
Or0 f36 head f35 mainIn #connect
Or0 f89 head f64 mainIn #connect
Or0 f5 mainOut f84 tail #connect
Or0 f84 head f7 mainIn #connect
Or0 f7 mainOut f85 tail #connect
Or0 f85 head f83 in #connect
Or0 f83 out f50 tail #connect
Or0 f50 head f80 in #connect
Or0 f90 head f91 mainIn #connect
Or0 f81 mainOut f86 tail #connect
Or0 f86 head f92 in #connect
Or0 f92 out f65 tail #connect
Or0 f65 head f87 mainIn #connect
Or0 f92 out f90 tail #connect
Or0 f2 mainOut f97 tail #connect
Or0 f97 head f94 mainIn #connect
Or0 f94 mainOut f11 tail #connect
Or0 f11 head f4 mainIn #connect
Or0 f87 mainOut f88 tail #connect
Or0 f88 head f64 mainIn #connect
Or0 f68 mainOut f55 tail #connect
Or0 f55 head f16 mainIn #connect
Or0 f74 mainOut f99 tail #connect
Or0 f99 head f98 mainIn #connect
Or0 f98 mainOut f20 tail #connect
Or0 f20 head f19 mainIn #connect
Or0 f16 mainOut f101 tail #connect
Or0 f101 head f100 mainIn #connect
Or0 f100 mainOut f95 tail #connect
Or0 f95 head f1 mainIn #connect
Or0 f62 mainOut f103 tail #connect
Or0 f103 head f102 mainIn #connect
Or0 f102 mainOut f25 tail #connect
Or0 f25 head f24 mainIn #connect
Or0 f70 mainOut f105 tail #connect
Or0 f105 head f104 mainIn #connect
Or0 f104 mainOut f93 tail #connect
Or0 f93 head f62 mainIn #connect
Or0 f72 mainOut f107 tail #connect
Or0 f107 head f106 mainIn #connect
Or0 f106 mainOut f34 tail #connect
Or0 f34 head f42 in #connect
Or0 f108 ao f109 tail #connect
Or0 f109 head f81 @CG|ai #connect
Or0 f29 out f96 tail #connect
Or0 f96 head f6 mainIn #connect
Or0 f91 mainOut f111 tail #connect
Or0 f111 head f6 mainIn #connect
Or0 f83 out f112 tail #connect
Or0 f112 head f6 mainIn #connect
Or0 f80 out f77 tail #connect
Or0 f77 head f8 mainIn #connect
Or0 f80 out f89 tail #connect
Or0 f8 mainOut f82 tail #connect
Or0 f82 head f81 mainIn #connect
