[Ivy]
[>Created: Wed Jul 27 14:48:21 CEST 2011]
12B550454A7D727E 3.15 #module
>Proto >Proto Collection #zClass
Sg0 Scanning Big #zClass
Sg0 B #cInfo
Sg0 #process
Sg0 @TextInP .resExport .resExport #zField
Sg0 @TextInP .type .type #zField
Sg0 @TextInP .processKind .processKind #zField
Sg0 @AnnotationInP-0n ai ai #zField
Sg0 @TextInP .xml .xml #zField
Sg0 @TextInP .responsibility .responsibility #zField
Sg0 @StartSub f0 '' #zField
Sg0 @EndSub f1 '' #zField
Sg0 @GridStep f2 '' #zField
Sg0 @GridStep f7 '' #zField
Sg0 @PushWFArc f3 '' #zField
Sg0 @StartSub f5 '' #zField
Sg0 @EndSub f6 '' #zField
Sg0 @Alternative f10 '' #zField
Sg0 @CallSub f15 '' #zField
Sg0 @PushWFArc f16 '' #zField
Sg0 @CallSub f12 '' #zField
Sg0 @Alternative f13 '' #zField
Sg0 @Alternative f20 '' #zField
Sg0 @PushWFArc f21 '' #zField
Sg0 @PushWFArc f8 '' #zField
Sg0 @GridStep f23 '' #zField
Sg0 @PushWFArc f25 '' #zField
Sg0 @Alternative f26 '' #zField
Sg0 @CallSub f29 '' #zField
Sg0 @PushWFArc f24 '' #zField
Sg0 @PushWFArc f34 '' #zField
Sg0 @PushWFArc f9 '' #zField
Sg0 @PushWFArc f22 '' #zField
Sg0 @PushWFArc f28 '' #zField
Sg0 @PushWFArc f30 '' #zField
Sg0 @InfoButton f27 '' #zField
Sg0 @StartSub f31 '' #zField
Sg0 @EndSub f32 '' #zField
Sg0 @Alternative f35 '' #zField
Sg0 @CallSub f37 '' #zField
Sg0 @PushWFArc f38 '' #zField
Sg0 @PushWFArc f33 '' #zField
Sg0 @Alternative f40 '' #zField
Sg0 @PushWFArc f36 '' #zField
Sg0 @Alternative f42 '' #zField
Sg0 @PushWFArc f43 '' #zField
Sg0 @PushWFArc f39 '' #zField
Sg0 @PushWFArc f44 '' #zField
Sg0 @PushWFArc f47 '' #zField
Sg0 @GridStep f48 '' #zField
Sg0 @StartSub f49 '' #zField
Sg0 @EndSub f50 '' #zField
Sg0 @PushWFArc f51 '' #zField
Sg0 @CallSub f54 '' #zField
Sg0 @Alternative f55 '' #zField
Sg0 @PushWFArc f57 '' #zField
Sg0 @PushWFArc f59 '' #zField
Sg0 @PushWFArc f14 '' #zField
Sg0 @PushWFArc f4 '' #zField
Sg0 @PushWFArc f56 '' #zField
Sg0 @Alternative f60 '' #zField
Sg0 @PushWFArc f61 '' #zField
Sg0 @PushWFArc f62 '' #zField
Sg0 @InfoButton f66 '' #zField
Sg0 @Alternative f67 '' #zField
Sg0 @PushWFArc f68 '' #zField
Sg0 @StartSub f65 '' #zField
Sg0 @EndSub f70 '' #zField
Sg0 @GridStep f72 '' #zField
Sg0 @EndSub f75 '' #zField
Sg0 @GridStep f76 '' #zField
Sg0 @StartSub f77 '' #zField
Sg0 @PushWFArc f78 '' #zField
Sg0 @PushWFArc f81 '' #zField
Sg0 @CallSub f74 '' #zField
Sg0 @PushWFArc f79 '' #zField
Sg0 @PushWFArc f46 '' #zField
Sg0 @PushWFArc f80 '' #zField
Sg0 @CallSub f18 '' #zField
Sg0 @PushWFArc f53 '' #zField
Sg0 @GridStep f52 '' #zField
Sg0 @PushWFArc f64 '' #zField
Sg0 @PushWFArc f82 '' #zField
Sg0 @PushWFArc f83 '' #zField
Sg0 @Alternative f84 '' #zField
Sg0 @PushWFArc f85 '' #zField
Sg0 @PushWFArc f11 '' #zField
Sg0 @PushWFArc f86 '' #zField
Sg0 @PushWFArc f41 '' #zField
Sg0 @PushWFArc f17 '' #zField
Sg0 @GridStep f19 '' #zField
Sg0 @PushWFArc f45 '' #zField
Sg0 @PushWFArc f58 '' #zField
>Proto Sg0 Sg0 Scanning #zField
Sg0 f0 inParamDecl '<java.lang.Boolean loadFiles,ch.soreco.orderbook.bo.Scanning filter> param;' #txt
Sg0 f0 inParamTable 'out.filter=param.filter;
out.loadFiles=param.loadFiles;
out.success=false;
' #txt
Sg0 f0 outParamDecl '<java.lang.Boolean success,java.lang.String error,ch.soreco.orderbook.bo.Scanning Scan> result;
' #txt
Sg0 f0 outParamTable 'result.success=in.success;
result.error=in.error;
result.Scan=in.Scan;
' #txt
Sg0 f0 actionDecl 'ch.soreco.orderbook.functional.Scanning out;
' #txt
Sg0 f0 callSignature get(Boolean,ch.soreco.orderbook.bo.Scanning) #txt
Sg0 f0 type ch.soreco.orderbook.functional.Scanning #txt
Sg0 f0 @C|.xml '<?xml version="1.0" encoding="UTF-8" standalone="yes"?>
<elementInfo>
    <language>
        <name>get(Scanning)</name>
        <nameStyle>13,5,7
</nameStyle>
    </language>
</elementInfo>
' #txt
Sg0 f0 91 35 26 26 -41 -33 #rect
Sg0 f0 @|StartSubIcon #fIcon
Sg0 f1 type ch.soreco.orderbook.functional.Scanning #txt
Sg0 f1 91 395 26 26 14 0 #rect
Sg0 f1 @|EndSubIcon #fIcon
Sg0 f2 actionDecl 'ch.soreco.orderbook.functional.Scanning out;
' #txt
Sg0 f2 actionTable 'out=in;
' #txt
Sg0 f2 actionCode 'import ch.soreco.orderbook.bo.Scanning;
import ch.soreco.webbies.common.db.EntityFilter;

List found = EntityFilter.getEntityResultList(in.filter,ivy.persistence.Adressmutation);

if(found!=null) {
	out.Scan = found.get(0) as Scanning;
	out.success = true;
	}
else {
	out.success = false;
}

' #txt
Sg0 f2 type ch.soreco.orderbook.functional.Scanning #txt
Sg0 f2 @C|.xml '<?xml version="1.0" encoding="UTF-8" standalone="yes"?>
<elementInfo>
    <language>
        <name>get a scan </name>
        <nameStyle>11
</nameStyle>
    </language>
</elementInfo>
' #txt
Sg0 f2 86 84 36 24 20 -2 #rect
Sg0 f2 @|StepIcon #fIcon
Sg0 f7 actionDecl 'ch.soreco.orderbook.functional.Scanning out;
' #txt
Sg0 f7 actionTable 'out=in;
' #txt
Sg0 f7 actionCode 'import ch.soreco.orderbook.bo.Scanning;
//persist
import ch.soreco.webbies.common.db.EscapeHtml;
EscapeHtml.escapeHtml(in.Scan);

try {
	out.Scan = ivy.persistence.Adressmutation.merge(in.Scan) as Scanning;
	out.success = true;
	}
catch (Exception e) {
	out.success = false;
	out.error = e.getMessage();
	ivy.log.error(e);
	}' #txt
Sg0 f7 type ch.soreco.orderbook.functional.Scanning #txt
Sg0 f7 @C|.xml '<?xml version="1.0" encoding="UTF-8" standalone="yes"?>
<elementInfo>
    <language>
        <name>merge Scan</name>
        <nameStyle>10
</nameStyle>
    </language>
</elementInfo>
' #txt
Sg0 f7 422 444 36 24 20 -2 #rect
Sg0 f7 @|StepIcon #fIcon
Sg0 f3 expr out #txt
Sg0 f3 104 61 104 84 #arcP
Sg0 f5 inParamDecl '<ch.soreco.orderbook.bo.Scanning scan> param;' #txt
Sg0 f5 inParamTable 'out.Scan=param.scan;
out.success=false;
' #txt
Sg0 f5 outParamDecl '<java.lang.Boolean success,java.lang.String error,ch.soreco.orderbook.bo.Scanning Scan> result;
' #txt
Sg0 f5 outParamTable 'result.success=in.success;
result.error=in.error;
result.Scan=in.Scan;
' #txt
Sg0 f5 actionDecl 'ch.soreco.orderbook.functional.Scanning out;
' #txt
Sg0 f5 callSignature set(ch.soreco.orderbook.bo.Scanning) #txt
Sg0 f5 type ch.soreco.orderbook.functional.Scanning #txt
Sg0 f5 @C|.xml '<?xml version="1.0" encoding="UTF-8" standalone="yes"?>
<elementInfo>
    <language>
        <name>set(Scanning)</name>
        <nameStyle>13,5,7
</nameStyle>
    </language>
</elementInfo>
' #txt
Sg0 f5 427 35 26 26 -36 -32 #rect
Sg0 f5 @|StartSubIcon #fIcon
Sg0 f6 type ch.soreco.orderbook.functional.Scanning #txt
Sg0 f6 427 507 26 26 14 0 #rect
Sg0 f6 @|EndSubIcon #fIcon
Sg0 f10 type ch.soreco.orderbook.functional.Scanning #txt
Sg0 f10 @C|.xml '<?xml version="1.0" encoding="UTF-8" standalone="yes"?>
<elementInfo>
    <language>
        <name>has a Scan File?</name>
        <nameStyle>16
</nameStyle>
    </language>
</elementInfo>
' #txt
Sg0 f10 90 218 28 28 -43 -37 #rect
Sg0 f10 @|AlternativeIcon #fIcon
Sg0 f15 type ch.soreco.orderbook.functional.Scanning #txt
Sg0 f15 processCall 'Functional Processes/common/File:get(ch.soreco.common.bo.File)' #txt
Sg0 f15 doCall true #txt
Sg0 f15 requestActionDecl '<ch.soreco.common.bo.File filter> param;
' #txt
Sg0 f15 requestMappingAction 'param.filter.fileId=in.Scan.scanFileId;
' #txt
Sg0 f15 responseActionDecl 'ch.soreco.orderbook.functional.Scanning out;
' #txt
Sg0 f15 responseMappingAction 'out=in;
out.Scan.scanFile=result.file.getFile().getAbsolutePath();
' #txt
Sg0 f15 @C|.xml '<?xml version="1.0" encoding="UTF-8" standalone="yes"?>
<elementInfo>
    <language>
        <name>get the Scan File</name>
        <nameStyle>17
</nameStyle>
    </language>
</elementInfo>
' #txt
Sg0 f15 158 220 36 25 -36 15 #rect
Sg0 f15 @|CallSubIcon #fIcon
Sg0 f16 expr in #txt
Sg0 f16 outCond in.Scan.scanFileId>0 #txt
Sg0 f16 118 232 158 231 #arcP
Sg0 f16 0 0.5165704428738223 0 0 #arcLabel
Sg0 f12 type ch.soreco.orderbook.functional.Scanning #txt
Sg0 f12 processCall 'Functional Processes/common/File:set(Boolean,Boolean,String)' #txt
Sg0 f12 doCall true #txt
Sg0 f12 requestActionDecl '<java.lang.Boolean keepFile,java.lang.Boolean deleteFromFileSystem,java.lang.String filePath> param;
' #txt
Sg0 f12 requestMappingAction 'param.keepFile=false;
param.deleteFromFileSystem=true;
param.filePath=in.Scan.scanFile;
' #txt
Sg0 f12 responseActionDecl 'ch.soreco.orderbook.functional.Scanning out;
' #txt
Sg0 f12 responseMappingAction 'out=in;
out.Scan.scanFileId=result.file.fileId;
out.success=result.success;
' #txt
Sg0 f12 @C|.xml '<?xml version="1.0" encoding="UTF-8" standalone="yes"?>
<elementInfo>
    <language>
        <name>upload scan file</name>
        <nameStyle>16
</nameStyle>
    </language>
</elementInfo>
' #txt
Sg0 f12 502 220 36 24 20 -2 #rect
Sg0 f12 @|CallSubIcon #fIcon
Sg0 f13 type ch.soreco.orderbook.functional.Scanning #txt
Sg0 f13 @C|.xml '<?xml version="1.0" encoding="UTF-8" standalone="yes"?>
<elementInfo>
    <language>
        <name>has file?</name>
        <nameStyle>9
</nameStyle>
    </language>
</elementInfo>
' #txt
Sg0 f13 426 170 28 28 14 0 #rect
Sg0 f13 @|AlternativeIcon #fIcon
Sg0 f20 type ch.soreco.orderbook.functional.Scanning #txt
Sg0 f20 @C|.xml '<?xml version="1.0" encoding="UTF-8" standalone="yes"?>
<elementInfo>
    <language>
        <name>was successful?</name>
        <nameStyle>15
</nameStyle>
    </language>
</elementInfo>
' #txt
Sg0 f20 506 274 28 28 14 0 #rect
Sg0 f20 @|AlternativeIcon #fIcon
Sg0 f21 expr out #txt
Sg0 f21 520 244 520 274 #arcP
Sg0 f8 expr in #txt
Sg0 f8 outCond in.Scan.scanFileId>0 #txt
Sg0 f8 440 198 440 444 #arcP
Sg0 f23 actionDecl 'ch.soreco.orderbook.functional.Scanning out;
' #txt
Sg0 f23 actionTable 'out=in;
out.error="No Scan file set";
out.success=false;
' #txt
Sg0 f23 type ch.soreco.orderbook.functional.Scanning #txt
Sg0 f23 @C|.xml '<?xml version="1.0" encoding="UTF-8" standalone="yes"?>
<elementInfo>
    <language>
        <name>no file applied</name>
        <nameStyle>15
</nameStyle>
    </language>
</elementInfo>
' #txt
Sg0 f23 342 228 36 24 20 -2 #rect
Sg0 f23 @|StepIcon #fIcon
Sg0 f25 expr out #txt
Sg0 f25 360 252 427 515 #arcP
Sg0 f25 1 360 488 #addKink
Sg0 f25 0 0.9064240415049118 0 0 #arcLabel
Sg0 f26 type ch.soreco.orderbook.functional.Scanning #txt
Sg0 f26 @C|.xml '<?xml version="1.0" encoding="UTF-8" standalone="yes"?>
<elementInfo>
    <language>
        <name>hasMonoFile?</name>
        <nameStyle>12
</nameStyle>
    </language>
</elementInfo>
' #txt
Sg0 f26 506 338 28 28 14 0 #rect
Sg0 f26 @|AlternativeIcon #fIcon
Sg0 f29 type ch.soreco.orderbook.functional.Scanning #txt
Sg0 f29 processCall 'Functional Processes/common/File:set(Boolean,Boolean,String)' #txt
Sg0 f29 doCall true #txt
Sg0 f29 requestActionDecl '<java.lang.Boolean keepFile,java.lang.Boolean deleteFromFileSystem,java.lang.String filePath> param;
' #txt
Sg0 f29 requestMappingAction 'param.keepFile=false;
param.deleteFromFileSystem=true;
param.filePath=in.Scan.scanMonoFile;
' #txt
Sg0 f29 responseActionDecl 'ch.soreco.orderbook.functional.Scanning out;
' #txt
Sg0 f29 responseMappingAction 'out=in;
out.Scan.scanMonoFileId=result.file.fileId;
' #txt
Sg0 f29 @C|.xml '<?xml version="1.0" encoding="UTF-8" standalone="yes"?>
<elementInfo>
    <language>
        <name>upload scan monofile</name>
        <nameStyle>20
</nameStyle>
    </language>
</elementInfo>
' #txt
Sg0 f29 502 412 36 24 20 -2 #rect
Sg0 f29 @|CallSubIcon #fIcon
Sg0 f24 expr in #txt
Sg0 f24 432 190 377 228 #arcP
Sg0 f34 expr in #txt
Sg0 f34 534 288 453 520 #arcP
Sg0 f34 1 680 288 #addKink
Sg0 f34 2 680 520 #addKink
Sg0 f34 1 0.22495395234150756 0 0 #arcLabel
Sg0 f9 expr in #txt
Sg0 f9 outCond in.success #txt
Sg0 f9 520 302 520 338 #arcP
Sg0 f22 expr out #txt
Sg0 f22 502 431 458 449 #arcP
Sg0 f28 expr in #txt
Sg0 f28 outCond in.Scan.scanMonoFile.length()>0 #txt
Sg0 f28 520 366 520 412 #arcP
Sg0 f28 0 0.42807561548279205 0 0 #arcLabel
Sg0 f30 expr in #txt
Sg0 f30 506 352 446 444 #arcP
Sg0 f30 1 456 352 #addKink
Sg0 f30 2 456 424 #addKink
Sg0 f30 1 0.24466879268809338 0 0 #arcLabel
Sg0 f27 @C|.xml '<?xml version="1.0" encoding="UTF-8" standalone="yes"?>
<elementInfo>
    <language>
        <name>Cause the MonoFile is not essential,
it doesn''t metter if its upload succeds or not.

24.01.2011:
This is not true!!!! Please change it.</name>
        <nameStyle>136
</nameStyle>
    </language>
</elementInfo>
' #txt
Sg0 f27 458 522 12 13 10 0 #rect
Sg0 f27 @|IBIcon #fIcon
Sg0 f27 -1|-1|-16777216 #nodeStyle
Sg0 f31 inParamDecl '<java.lang.Integer orderId,List<ch.soreco.orderbook.bo.Scanning> scannings> param;' #txt
Sg0 f31 inParamTable 'out.orderId=param.orderId;
out.scannings=param.scannings;
' #txt
Sg0 f31 outParamDecl '<ch.soreco.orderbook.bo.Scanning MainScanning,java.lang.Boolean success,java.lang.String error> result;
' #txt
Sg0 f31 outParamTable 'result.MainScanning=in.Scan;
result.success=in.success;
result.error=in.error;
' #txt
Sg0 f31 actionDecl 'ch.soreco.orderbook.functional.Scanning out;
' #txt
Sg0 f31 callSignature setList(Integer,List<ch.soreco.orderbook.bo.Scanning>) #txt
Sg0 f31 type ch.soreco.orderbook.functional.Scanning #txt
Sg0 f31 @C|.xml '<?xml version="1.0" encoding="UTF-8" standalone="yes"?>
<elementInfo>
    <language>
        <name>setList(Integer,List&lt;Scanning&gt;)</name>
    </language>
</elementInfo>
' #txt
Sg0 f31 779 35 26 26 -80 -34 #rect
Sg0 f31 @|StartSubIcon #fIcon
Sg0 f32 type ch.soreco.orderbook.functional.Scanning #txt
Sg0 f32 779 427 26 26 14 0 #rect
Sg0 f32 @|EndSubIcon #fIcon
Sg0 f35 type ch.soreco.orderbook.functional.Scanning #txt
Sg0 f35 @C|.xml '<?xml version="1.0" encoding="UTF-8" standalone="yes"?>
<elementInfo>
    <language>
        <name>has next?</name>
        <nameStyle>9
</nameStyle>
    </language>
</elementInfo>
' #txt
Sg0 f35 778 258 28 28 14 0 #rect
Sg0 f35 @|AlternativeIcon #fIcon
Sg0 f37 type ch.soreco.orderbook.functional.Scanning #txt
Sg0 f37 processCall 'Functional Processes/scanning/Scanning:set(ch.soreco.orderbook.bo.Scanning)' #txt
Sg0 f37 doCall true #txt
Sg0 f37 requestActionDecl '<ch.soreco.orderbook.bo.Scanning scan> param;
' #txt
Sg0 f37 requestMappingAction 'param.scan=in.scannings.removeGet(0);
param.scan.orderId=in.orderId;
' #txt
Sg0 f37 responseActionDecl 'ch.soreco.orderbook.functional.Scanning out;
' #txt
Sg0 f37 responseMappingAction 'out=in;
out.error=result.error;
out.Scan=IF(result.Scan.isMain,result.Scan,in.Scan);
out.success=result.success;
' #txt
Sg0 f37 @C|.xml '<?xml version="1.0" encoding="UTF-8" standalone="yes"?>
<elementInfo>
    <language>
        <name>set(Scanning)</name>
        <nameStyle>13
</nameStyle>
    </language>
</elementInfo>
' #txt
Sg0 f37 910 260 36 24 20 -2 #rect
Sg0 f37 @|CallSubIcon #fIcon
Sg0 f38 expr in #txt
Sg0 f38 outCond in.scannings.size()>0 #txt
Sg0 f38 798 280 928 284 #arcP
Sg0 f38 1 816 304 #addKink
Sg0 f38 2 928 304 #addKink
Sg0 f38 1 0.6412996832959724 0 0 #arcLabel
Sg0 f33 expr in #txt
Sg0 f33 792 286 792 427 #arcP
Sg0 f40 type ch.soreco.orderbook.functional.Scanning #txt
Sg0 f40 @C|.xml '<?xml version="1.0" encoding="UTF-8" standalone="yes"?>
<elementInfo>
    <language>
        <name>has main scanning?</name>
        <nameStyle>18
</nameStyle>
        <desc>Every list of scanning need one (and just one) main scanning!!!</desc>
    </language>
</elementInfo>
' #txt
Sg0 f40 778 146 28 28 14 0 #rect
Sg0 f40 @|AlternativeIcon #fIcon
Sg0 f40 -13016147|-1|-16777216 #nodeStyle
Sg0 f36 expr in #txt
Sg0 f36 outCond in.success #txt
Sg0 f36 792 174 792 258 #arcP
Sg0 f42 type ch.soreco.orderbook.functional.Scanning #txt
Sg0 f42 @C|.xml '<?xml version="1.0" encoding="UTF-8" standalone="yes"?>
<elementInfo>
    <language>
        <name>succeed?</name>
        <nameStyle>8
</nameStyle>
    </language>
</elementInfo>
' #txt
Sg0 f42 842 226 28 28 14 0 #rect
Sg0 f42 @|AlternativeIcon #fIcon
Sg0 f43 expr out #txt
Sg0 f43 928 260 870 240 #arcP
Sg0 f43 1 928 240 #addKink
Sg0 f43 1 0.09793244316671969 0 0 #arcLabel
Sg0 f39 expr in #txt
Sg0 f39 outCond in.success #txt
Sg0 f39 842 240 798 264 #arcP
Sg0 f39 1 816 240 #addKink
Sg0 f39 1 0.3076923076923077 0 0 #arcLabel
Sg0 f44 expr in #txt
Sg0 f44 856 226 805 440 #arcP
Sg0 f44 1 856 200 #addKink
Sg0 f44 2 1040 200 #addKink
Sg0 f44 3 1040 440 #addKink
Sg0 f44 2 0.998649889751659 0 0 #arcLabel
Sg0 f47 expr in #txt
Sg0 f47 778 160 779 440 #arcP
Sg0 f47 1 744 160 #addKink
Sg0 f47 2 744 440 #addKink
Sg0 f47 1 0.48505809865407556 0 0 #arcLabel
Sg0 f48 actionDecl 'ch.soreco.orderbook.functional.Scanning out;
' #txt
Sg0 f48 actionTable 'out=in;
' #txt
Sg0 f48 actionCode 'import ch.soreco.orderbook.bo.Scanning;

List<Scanning> found = ivy.persistence.Adressmutation
		.createQuery("select c from Scanning c where c.orderId = :orderId")
		.setParameter("orderId", in.filter.orderId)
		.getResultList();
		
if(found!=null) {
	out.scannings.clear();
	for(Scanning scan:found){
		out.scannings.add(scan);
		}	
	out.success = true;
	}
else {
	out.success = false;
}

' #txt
Sg0 f48 type ch.soreco.orderbook.functional.Scanning #txt
Sg0 f48 @C|.xml '<?xml version="1.0" encoding="UTF-8" standalone="yes"?>
<elementInfo>
    <language>
        <name>getScannings</name>
        <nameStyle>12
</nameStyle>
    </language>
</elementInfo>
' #txt
Sg0 f48 1134 92 36 24 20 -2 #rect
Sg0 f48 @|StepIcon #fIcon
Sg0 f49 inParamDecl '<java.lang.Boolean loadFiles,java.lang.Integer OrderId> param;' #txt
Sg0 f49 inParamTable 'out.filter.orderId=param.OrderId;
out.loadFiles=param.loadFiles;
' #txt
Sg0 f49 outParamDecl '<java.lang.Boolean success,List<ch.soreco.orderbook.bo.Scanning> Scannings,java.lang.String error> result;
' #txt
Sg0 f49 outParamTable 'result.success=in.success;
result.Scannings=in.scannings;
result.error=in.error;
' #txt
Sg0 f49 actionDecl 'ch.soreco.orderbook.functional.Scanning out;
' #txt
Sg0 f49 callSignature getScanningList(Boolean,Integer) #txt
Sg0 f49 type ch.soreco.orderbook.functional.Scanning #txt
Sg0 f49 @C|.xml '<?xml version="1.0" encoding="UTF-8" standalone="yes"?>
<elementInfo>
    <language>
        <name>getScanningList(Boolean,Integer)</name>
    </language>
</elementInfo>
' #txt
Sg0 f49 1139 35 26 26 -65 -32 #rect
Sg0 f49 @|StartSubIcon #fIcon
Sg0 f50 type ch.soreco.orderbook.functional.Scanning #txt
Sg0 f50 1139 411 26 26 14 0 #rect
Sg0 f50 @|EndSubIcon #fIcon
Sg0 f51 expr out #txt
Sg0 f51 1152 61 1152 92 #arcP
Sg0 f54 type ch.soreco.orderbook.functional.Scanning #txt
Sg0 f54 processCall 'Functional Processes/common/File:get(ch.soreco.common.bo.File)' #txt
Sg0 f54 doCall true #txt
Sg0 f54 requestActionDecl '<ch.soreco.common.bo.File filter> param;
' #txt
Sg0 f54 requestMappingAction 'param.filter.fileId=in.Scan.scanMonoFileId;
' #txt
Sg0 f54 responseActionDecl 'ch.soreco.orderbook.functional.Scanning out;
' #txt
Sg0 f54 responseMappingAction 'out=in;
out.Scan.scanMonoFile=result.file.getFile().getAbsolutePath();
' #txt
Sg0 f54 @C|.xml '<?xml version="1.0" encoding="UTF-8" standalone="yes"?>
<elementInfo>
    <language>
        <name>get the Scan Mono File</name>
        <nameStyle>22
</nameStyle>
    </language>
</elementInfo>
' #txt
Sg0 f54 158 300 36 24 -56 11 #rect
Sg0 f54 @|CallSubIcon #fIcon
Sg0 f55 type ch.soreco.orderbook.functional.Scanning #txt
Sg0 f55 @C|.xml '<?xml version="1.0" encoding="UTF-8" standalone="yes"?>
<elementInfo>
    <language>
        <name>has a Scan Mono File?</name>
        <nameStyle>21
</nameStyle>
    </language>
</elementInfo>
' #txt
Sg0 f55 90 298 28 28 -41 -39 #rect
Sg0 f55 @|AlternativeIcon #fIcon
Sg0 f57 expr in #txt
Sg0 f57 outCond in.Scan.scanMonoFileId>0 #txt
Sg0 f57 118 312 158 312 #arcP
Sg0 f59 expr in #txt
Sg0 f59 104 246 104 298 #arcP
Sg0 f14 expr out #txt
Sg0 f14 176 244 115 309 #arcP
Sg0 f14 1 176 288 #addKink
Sg0 f14 1 0.16059292232263023 0 0 #arcLabel
Sg0 f4 expr in #txt
Sg0 f4 104 326 104 395 #arcP
Sg0 f56 expr out #txt
Sg0 f56 176 324 116 405 #arcP
Sg0 f56 1 176 392 #addKink
Sg0 f56 0 0.9752089981507986 0 0 #arcLabel
Sg0 f60 type ch.soreco.orderbook.functional.Scanning #txt
Sg0 f60 @C|.xml '<?xml version="1.0" encoding="UTF-8" standalone="yes"?>
<elementInfo>
    <language>
        <name>succeed?</name>
        <nameStyle>8
</nameStyle>
    </language>
</elementInfo>
' #txt
Sg0 f60 90 130 28 28 14 0 #rect
Sg0 f60 @|AlternativeIcon #fIcon
Sg0 f61 expr out #txt
Sg0 f61 104 108 104 130 #arcP
Sg0 f62 expr in #txt
Sg0 f62 90 144 91 408 #arcP
Sg0 f62 1 40 144 #addKink
Sg0 f62 2 40 408 #addKink
Sg0 f62 1 0.45348467314582663 0 0 #arcLabel
Sg0 f66 @C|.xml '<?xml version="1.0" encoding="UTF-8" standalone="yes"?>
<elementInfo>
    <language>
        <name>Schlaufe über alle Scannings um
alle passenden Files zu holen...
(Aufrufprozess get(Scanning))</name>
        <nameStyle>94
</nameStyle>
    </language>
</elementInfo>
' #txt
Sg0 f66 1068 195 8 10 10 0 #rect
Sg0 f66 @|IBIcon #fIcon
Sg0 f66 -1|-1|-16777216 #nodeStyle
Sg0 f67 type ch.soreco.orderbook.functional.Scanning #txt
Sg0 f67 1138 170 28 28 14 0 #rect
Sg0 f67 @|AlternativeIcon #fIcon
Sg0 f68 expr out #txt
Sg0 f68 1152 116 1152 170 #arcP
Sg0 f65 inParamDecl '<List<ch.soreco.orderbook.bo.Scanning> scannings> param;' #txt
Sg0 f65 inParamTable 'out.scannings=param.scannings;
' #txt
Sg0 f65 outParamDecl '<java.lang.Boolean success,java.lang.String error,ch.soreco.orderbook.bo.Scanning mainScanning,List<ch.soreco.orderbook.bo.Scanning> scannings> result;
' #txt
Sg0 f65 outParamTable 'result.success=in.success;
result.error=in.error;
result.mainScanning=in.Scan;
result.scannings=in.scannings;
' #txt
Sg0 f65 actionDecl 'ch.soreco.orderbook.functional.Scanning out;
' #txt
Sg0 f65 callSignature getMainScanning(List<ch.soreco.orderbook.bo.Scanning>) #txt
Sg0 f65 type ch.soreco.orderbook.functional.Scanning #txt
Sg0 f65 @C|.xml '<?xml version="1.0" encoding="UTF-8" standalone="yes"?>
<elementInfo>
    <language>
        <name>getMainScanning(List&lt;Scanning&gt;)</name>
    </language>
</elementInfo>
' #txt
Sg0 f65 91 451 26 26 -80 -30 #rect
Sg0 f65 @|StartSubIcon #fIcon
Sg0 f70 type ch.soreco.orderbook.functional.Scanning #txt
Sg0 f70 91 579 26 26 14 0 #rect
Sg0 f70 @|EndSubIcon #fIcon
Sg0 f72 actionDecl 'ch.soreco.orderbook.functional.Scanning out;
' #txt
Sg0 f72 actionTable 'out=in;
' #txt
Sg0 f72 actionCode 'import ch.soreco.orderbook.bo.OrderMatching;
import ch.soreco.orderbook.bo.Scanning;
import java.util.HashMap;

Scanning mainScan;
Scanning Scan;
int maxPrio = 1000;
in.success = false;

//get main scanning
for (int i = 0 ; i < in.scannings.size(); i++){
	int prio = in.scannings.get(i).orderMatching.priority;
	//set scanning to not main scanning
	Scan = in.scannings.get(i);
	Scan.isMain = false;
	in.scannings.set(i,Scan);
	
	//set main scanning
	if (prio < maxPrio) {
		maxPrio = prio;
		mainScan = in.scannings.get(i);
		mainScan.isMain = true;
		in.scannings.set(i,mainScan);
		
		in.success = true;
	}
	
	//found more than one main
	else if (prio == maxPrio){
		out.success = false;
	}
}

//set main scanning
out.Scan = mainScan;

//Errorhandling
if (!in.success) {
	out.error = "No MainOrder could be identified.\n"+
							"Last scan at file "+mainScan.scanFile+".";
	ivy.log.error(in.error);
}' #txt
Sg0 f72 type ch.soreco.orderbook.functional.Scanning #txt
Sg0 f72 @C|.xml '<?xml version="1.0" encoding="UTF-8" standalone="yes"?>
<elementInfo>
    <language>
        <name>get main scanning</name>
        <nameStyle>17
</nameStyle>
        <desc>Skipped as on Scannings with multiple Files (Registers)
but which aren''t Dossiers we need not to clarify the main scanning</desc>
    </language>
</elementInfo>
' #txt
Sg0 f72 230 548 36 24 20 -2 #rect
Sg0 f72 @|StepIcon #fIcon
Sg0 f75 type ch.soreco.orderbook.functional.Scanning #txt
Sg0 f75 243 131 26 26 14 0 #rect
Sg0 f75 @|EndSubIcon #fIcon
Sg0 f76 actionDecl 'ch.soreco.orderbook.functional.Scanning out;
' #txt
Sg0 f76 actionTable 'out=in;
' #txt
Sg0 f76 actionCode 'import ch.soreco.orderbook.bo.Scanning;
import ch.soreco.webbies.common.db.EntityFilter;

List found = EntityFilter.getEntityResultList(in.filter,ivy.persistence.Adressmutation);

if(found!=null) {
	if(found.size()>0){
		for(Scanning match : found){out.scannings.add(match);}
		}
	}
else {
	out.success = false;
}


' #txt
Sg0 f76 type ch.soreco.orderbook.functional.Scanning #txt
Sg0 f76 @C|.xml '<?xml version="1.0" encoding="UTF-8" standalone="yes"?>
<elementInfo>
    <language>
        <name>getScannings</name>
        <nameStyle>12
</nameStyle>
    </language>
</elementInfo>
' #txt
Sg0 f76 238 84 36 24 20 -2 #rect
Sg0 f76 @|StepIcon #fIcon
Sg0 f77 inParamDecl '<ch.soreco.orderbook.bo.Scanning Scanning> param;' #txt
Sg0 f77 inParamTable 'out.filter=param.Scanning;
' #txt
Sg0 f77 outParamDecl '<java.lang.Boolean success,List<ch.soreco.orderbook.bo.Scanning> Scannings,java.lang.String error> result;
' #txt
Sg0 f77 outParamTable 'result.success=in.success;
result.Scannings=in.scannings;
result.error=in.error;
' #txt
Sg0 f77 actionDecl 'ch.soreco.orderbook.functional.Scanning out;
' #txt
Sg0 f77 callSignature getScanningList(ch.soreco.orderbook.bo.Scanning) #txt
Sg0 f77 type ch.soreco.orderbook.functional.Scanning #txt
Sg0 f77 @C|.xml '<?xml version="1.0" encoding="UTF-8" standalone="yes"?>
<elementInfo>
    <language>
        <name>getScanningList(Scanning)</name>
    </language>
</elementInfo>
' #txt
Sg0 f77 243 35 26 26 -60 -33 #rect
Sg0 f77 @|StartSubIcon #fIcon
Sg0 f78 expr out #txt
Sg0 f78 256 61 256 84 #arcP
Sg0 f81 expr out #txt
Sg0 f81 256 108 256 131 #arcP
Sg0 f74 type ch.soreco.orderbook.functional.Scanning #txt
Sg0 f74 processCall 'Functional Processes/scanning/Scanning:getMainScanning(List<ch.soreco.orderbook.bo.Scanning>)' #txt
Sg0 f74 doCall true #txt
Sg0 f74 requestActionDecl '<List<ch.soreco.orderbook.bo.Scanning> scannings> param;
' #txt
Sg0 f74 requestMappingAction 'param.scannings=in.scannings;
' #txt
Sg0 f74 responseActionDecl 'ch.soreco.orderbook.functional.Scanning out;
' #txt
Sg0 f74 responseMappingAction 'out=in;
out.error=result.error;
out.Scan=result.mainScanning;
out.scannings=result.scannings;
out.success=result.success;
' #txt
Sg0 f74 @C|.xml '<?xml version="1.0" encoding="UTF-8" standalone="yes"?>
<elementInfo>
    <language>
        <name>get main scanning</name>
        <nameStyle>17
</nameStyle>
    </language>
</elementInfo>
' #txt
Sg0 f74 774 84 36 24 20 -2 #rect
Sg0 f74 @|CallSubIcon #fIcon
Sg0 f79 expr out #txt
Sg0 f79 792 61 792 84 #arcP
Sg0 f46 expr out #txt
Sg0 f46 792 108 792 146 #arcP
Sg0 f46 0 0.41935106412474604 0 0 #arcLabel
Sg0 f80 expr in #txt
Sg0 f80 outCond in.Scan.scanFile.length()>0 #txt
Sg0 f80 449 189 502 221 #arcP
Sg0 f18 type ch.soreco.orderbook.functional.Scanning #txt
Sg0 f18 processCall 'Functional Processes/scanning/Scanning:get(Boolean,ch.soreco.orderbook.bo.Scanning)' #txt
Sg0 f18 doCall true #txt
Sg0 f18 requestActionDecl '<java.lang.Boolean loadFiles,ch.soreco.orderbook.bo.Scanning filter> param;
' #txt
Sg0 f18 requestMappingAction 'param.loadFiles=in.loadFiles;
param.filter.scanningId=in.scannings.get(in.i).scanningId;
' #txt
Sg0 f18 responseActionDecl 'ch.soreco.orderbook.functional.Scanning out;
' #txt
Sg0 f18 responseMappingAction 'out=in;
out.scannings=in.scannings.set(in.i,result.Scan);
' #txt
Sg0 f18 @C|.xml '<?xml version="1.0" encoding="UTF-8" standalone="yes"?>
<elementInfo>
    <language>
        <name>get(Boolean,Scanning)</name>
        <nameStyle>21,5,7
</nameStyle>
    </language>
</elementInfo>
' #txt
Sg0 f18 1294 172 36 24 20 -2 #rect
Sg0 f18 @|CallSubIcon #fIcon
Sg0 f53 expr in #txt
Sg0 f53 outCond in.i<in.scannings.size()&&in.loadFiles #txt
Sg0 f53 1166 184 1294 184 #arcP
Sg0 f52 actionDecl 'ch.soreco.orderbook.functional.Scanning out;
' #txt
Sg0 f52 actionTable 'out=in;
out.i=in.i+1;
' #txt
Sg0 f52 type ch.soreco.orderbook.functional.Scanning #txt
Sg0 f52 @C|.xml '<?xml version="1.0" encoding="UTF-8" standalone="yes"?>
<elementInfo>
    <language>
        <name>i++</name>
        <nameStyle>3
</nameStyle>
    </language>
</elementInfo>
' #txt
Sg0 f52 1294 228 36 24 20 -2 #rect
Sg0 f52 @|StepIcon #fIcon
Sg0 f64 expr out #txt
Sg0 f64 1312 196 1312 228 #arcP
Sg0 f82 expr out #txt
Sg0 f82 1294 234 1162 188 #arcP
Sg0 f83 expr in #txt
Sg0 f83 1152 198 1152 411 #arcP
Sg0 f84 type ch.soreco.orderbook.functional.Scanning #txt
Sg0 f84 @C|.xml '<?xml version="1.0" encoding="UTF-8" standalone="yes"?>
<elementInfo>
    <language>
        <name>load files?</name>
        <nameStyle>11
</nameStyle>
    </language>
</elementInfo>
' #txt
Sg0 f84 90 170 28 28 14 0 #rect
Sg0 f84 @|AlternativeIcon #fIcon
Sg0 f85 expr in #txt
Sg0 f85 outCond in.success #txt
Sg0 f85 104 158 104 170 #arcP
Sg0 f11 expr in #txt
Sg0 f11 outCond in.loadFiles #txt
Sg0 f11 6 #arcStyle
Sg0 f11 104 198 104 218 #arcP
Sg0 f86 expr in #txt
Sg0 f86 3 #arcStyle
Sg0 f86 118 184 117 408 #arcP
Sg0 f86 1 248 184 #addKink
Sg0 f86 2 248 408 #addKink
Sg0 f86 1 0.34985622682869294 0 0 #arcLabel
Sg0 f41 expr out #txt
Sg0 f41 440 61 440 170 #arcP
Sg0 f17 expr out #txt
Sg0 f17 440 468 440 507 #arcP
Sg0 f19 actionDecl 'ch.soreco.orderbook.functional.Scanning out;
' #txt
Sg0 f19 actionTable 'out=in;
' #txt
Sg0 f19 actionCode 'import ch.soreco.orderbook.bo.Scanning;

//as we only have one scanning set this as main scanning
if(in.scannings.size()==1){
	Scanning scan = in.scannings.get(0) as Scanning;
	scan.isMain = true;
	in.scannings.set(0,scan);
	out.Scan = scan;
	}
else if (in.scannings.size()>1){
	//We Need to loop all scannings
	//to determine the one with the lowest Priority, as this will be used 
	//on the Order as (Main) Scanning reference
	int lowestPriority=-1;
	Scanning mainScan;
	int mainScanIndex = 0;
	int i=0;
	
	for(Scanning scan :in.scannings){
		if(lowestPriority ==-1){
			mainScan = scan;
			mainScanIndex = i;
			lowestPriority = scan.orderMatching.priority;
			}
		if(scan.orderMatching.priority<lowestPriority){
			mainScan = scan;
			mainScanIndex = i;
			lowestPriority = scan.orderMatching.priority;			
			}
		i++;
		}	
	mainScan.isMain = true;
	in.scannings.set(mainScanIndex,mainScan);
	out.Scan = mainScan;	
	}
out.success = true;' #txt
Sg0 f19 type ch.soreco.orderbook.functional.Scanning #txt
Sg0 f19 @C|.xml '<?xml version="1.0" encoding="UTF-8" standalone="yes"?>
<elementInfo>
    <language>
        <name>Decide for Main Scanning</name>
        <nameStyle>24
</nameStyle>
    </language>
</elementInfo>
' #txt
Sg0 f19 86 516 36 24 20 -2 #rect
Sg0 f19 @|StepIcon #fIcon
Sg0 f45 expr out #txt
Sg0 f45 104 477 104 516 #arcP
Sg0 f45 0 0.5006050545440143 0 0 #arcLabel
Sg0 f58 expr out #txt
Sg0 f58 104 540 104 579 #arcP
>Proto Sg0 .type ch.soreco.orderbook.functional.Scanning #txt
>Proto Sg0 .processKind CALLABLE_SUB #txt
>Proto Sg0 0 0 32 24 18 0 #rect
>Proto Sg0 @|BIcon #fIcon
Sg0 f0 mainOut f3 tail #connect
Sg0 f3 head f2 mainIn #connect
Sg0 f10 out f16 tail #connect
Sg0 f16 head f15 mainIn #connect
Sg0 f12 mainOut f21 tail #connect
Sg0 f21 head f20 in #connect
Sg0 f13 out f8 tail #connect
Sg0 f8 head f7 mainIn #connect
Sg0 f23 mainOut f25 tail #connect
Sg0 f25 head f6 mainIn #connect
Sg0 f24 head f23 mainIn #connect
Sg0 f34 head f6 mainIn #connect
Sg0 f20 out f9 tail #connect
Sg0 f9 head f26 in #connect
Sg0 f20 out f34 tail #connect
Sg0 f29 mainOut f22 tail #connect
Sg0 f22 head f7 mainIn #connect
Sg0 f28 head f29 mainIn #connect
Sg0 f30 head f7 mainIn #connect
Sg0 f26 out f28 tail #connect
Sg0 f26 out f30 tail #connect
Sg0 f35 out f38 tail #connect
Sg0 f38 head f37 mainIn #connect
Sg0 f35 out f33 tail #connect
Sg0 f33 head f32 mainIn #connect
Sg0 f40 out f36 tail #connect
Sg0 f36 head f35 in #connect
Sg0 f37 mainOut f43 tail #connect
Sg0 f43 head f42 in #connect
Sg0 f42 out f39 tail #connect
Sg0 f39 head f35 in #connect
Sg0 f42 out f44 tail #connect
Sg0 f44 head f32 mainIn #connect
Sg0 f40 out f47 tail #connect
Sg0 f47 head f32 mainIn #connect
Sg0 f49 mainOut f51 tail #connect
Sg0 f51 head f48 mainIn #connect
Sg0 f55 out f57 tail #connect
Sg0 f57 head f54 mainIn #connect
Sg0 f10 out f59 tail #connect
Sg0 f59 head f55 in #connect
Sg0 f15 mainOut f14 tail #connect
Sg0 f14 head f55 in #connect
Sg0 f55 out f4 tail #connect
Sg0 f4 head f1 mainIn #connect
Sg0 f54 mainOut f56 tail #connect
Sg0 f56 head f1 mainIn #connect
Sg0 f2 mainOut f61 tail #connect
Sg0 f61 head f60 in #connect
Sg0 f62 head f1 mainIn #connect
Sg0 f48 mainOut f68 tail #connect
Sg0 f68 head f67 in #connect
Sg0 f77 mainOut f78 tail #connect
Sg0 f78 head f76 mainIn #connect
Sg0 f76 mainOut f81 tail #connect
Sg0 f81 head f75 mainIn #connect
Sg0 f31 mainOut f79 tail #connect
Sg0 f79 head f74 mainIn #connect
Sg0 f74 mainOut f46 tail #connect
Sg0 f46 head f40 in #connect
Sg0 f13 out f80 tail #connect
Sg0 f80 head f12 mainIn #connect
Sg0 f13 out f24 tail #connect
Sg0 f67 out f53 tail #connect
Sg0 f53 head f18 mainIn #connect
Sg0 f18 mainOut f64 tail #connect
Sg0 f64 head f52 mainIn #connect
Sg0 f52 mainOut f82 tail #connect
Sg0 f82 head f67 in #connect
Sg0 f67 out f83 tail #connect
Sg0 f83 head f50 mainIn #connect
Sg0 f60 out f85 tail #connect
Sg0 f85 head f84 in #connect
Sg0 f60 out f62 tail #connect
Sg0 f84 out f11 tail #connect
Sg0 f11 head f10 in #connect
Sg0 f84 out f86 tail #connect
Sg0 f86 head f1 mainIn #connect
Sg0 f5 mainOut f41 tail #connect
Sg0 f41 head f13 in #connect
Sg0 f7 mainOut f17 tail #connect
Sg0 f17 head f6 mainIn #connect
Sg0 f65 mainOut f45 tail #connect
Sg0 f45 head f19 mainIn #connect
Sg0 f19 mainOut f58 tail #connect
Sg0 f58 head f70 mainIn #connect
